{
    "hashes": {
        "AUTHORS.md": "e09e9b0ca60a23fe42881dd4276b2cd3058dc9471c6b893ecf300e05ed1bb11d3898e35c714d4be60dfd14ae5985ba1ee6e7f2b980b47e4b961204f8e2a8f752",
        "CHANGELOG.md": "cf83e1357eefb8bdf1542850d66d8007d620e4050b5715dc83f4a921d36ce9ce47d0d13c5d85f2b0ff8318d2877eec2f63b931bd47417a81a538327af927da3e",
        "COPYING": "6e90d46be391aa645bcf4dfaa67f452cb15a73749f1895633789c7763b43cc0b65d391e5e95652c9a9a2063c956e0e8099a4e1ce4b70b0636629f9eac39c1080",
        "appinfo\/info.xml": "0f74bf4170316d3658ee71f83c3170015790f7f09706530bfa98a4b781e438b7f8a183fe08d7c8053038ea92f3098d4c1bb4ef17658342c9f22b7e379a2c6e41",
        "appinfo\/routes.php": "699cbb784769242957efde5c4d05eaa1c9fff7a69b052504d0525c2d416ec97016365e210cffc22706f181a155a4cdd3b449c64a09697abd8d25ccc2c0582ba0",
        "composer.json": "6dd5b9a9fb4067b72a29e816b3267a7bbafe6126ba131a13bb5b6f6beb8d094490bea255c9e321e98a0ff61b35d7324edb395f17be601474260453a2eeffbf77",
        "composer.lock": "9c8d79ba22ac0b329bcbafc0efb7f813a8444a2e1260082c377a0789bc9e56cb1a82177d8666d0d687490b0658de456beee69ce4e245bc1129c42086445663f6",
        "css\/style.scss": "10f8e790ea0d662e5fa5edf0311a7c5bc2e1e47e132c06e55954d074eea4e1849456efd22d74f36adb4f968c32c9b9af0e61006d03c22a669310bd28b13a9f8a",
        "img\/app-dark.svg": "cd9caecb9686d69f99d5e7a08811c43e5605b19475c1fed48a921bb0555b5708aafc7ccf84aba0a04aaa99fc7753cde66455d4f41a58eff0f7eb7375e8835554",
        "img\/app.svg": "4716500378613436afa533eb721429588d5c28ae88018d125e9cdade344ea0ef7c5675fca98e2659593baa219153e09a72f1d1e7106f4060db994d482338acbe",
        "js\/Chart.min.js": "ee1778d709cbf5e91844b2d471b8712a0bab3aaae44677673af715dfda8cf46276139864018d6f4b17a4886e00560380958af18554aff9b6034d98abd820990b",
        "js\/script.js": "2beb1b8aaaf9a77211c176c636955ebe2602cf670b8095a661250ad07a146dfc881fe3f8a1af24378b0f3a0ab816f90ef6407c4b18891fe8239d0e6326b1cdba",
        "js\/smoothie.js": "e117e3a5ed36152fbe03d280b08a30a95e0e170413878b510fd98a1efe91b48d01be194e4510a627405a789b8e488fe5aa831597be600a367498355567da65e7",
        "l10n\/af.js": "542b3a88b7ded6cd49569921d773681ac68ce996c177b618d79400ff41ea946f675b4d8097400ccc0908e4842c2267822342321d9ab18be55090e9e47d5344af",
        "l10n\/af.json": "9675ab44c15c6e25ecf49c545d0459b3cd1a30d4fd4c1e4ae184442eadd4e83d10c6454ea8f7eb0dc6c6e74886dd451595e728ba741085307aaca35bbe0b5996",
        "l10n\/ar.js": "b387b4a142bb4c06c0188c4acaef73ea5f87b7d5b42bd28345b6f8f88ca2e049d656b049df5df399746c29a7f5ef8d2cfb25718694f953191f75be8dd1296d2d",
        "l10n\/ar.json": "f154524ae10235981e68c169ab4261136290cb37a4eb3ea0f3e71a3987cac16c3027f12abc6cfc6fbea5f418872b54e9990543d8048869e4572a47a10ac9bdb6",
        "l10n\/ast.js": "2f5398c284cc3a2643342de548485c25e4c19b343fa650442fbba703372eb71da348fd2d9de50fcf4ff3e17c480b7d8255c230c37b3e9bb4981f423aada8b3d3",
        "l10n\/ast.json": "8fb1cb4d1d6dc2f632dbb7b305c3210a904f4fffbca535d3d0899c96dff468a61a2cbe5647d3d04c8b8738d16396598cf4a2ad0b47d95281fc6032b647ec3c25",
        "l10n\/az.js": "ff8a0e456f97033f2af5c357c6faaebe32f54c12b3867f72c59519d3fab91b3f6cf9794061fad46ea83f16ce6456a30386d6babbc5389680f89265ab01f3fbfc",
        "l10n\/az.json": "7194bc33dac8b2611b627a6ca6000c5f05f239293c85df811caaf4f94f971aac487eeac4f8fb46705a474ca5a2bf123680c8558fe4c105d823e067e38e0bce36",
        "l10n\/bg.js": "393dbbc48cfcc3b1dd41ec94eeca201859a10d202a191a5c3f6d49a45aab8c10be1f3ca2631114582a842768f53c2171cb76d7dc3003d240c8bcfdbe4b8c7485",
        "l10n\/bg.json": "90ac4af1d2484fe79acfd7e6b17079f216e9326d5051397d1f2a26ac4ea51a795243c8cc109f3a144bf6c4e34df8001dd81157df544f5f0645e8deda5ceb5cbf",
        "l10n\/bn_BD.js": "861cce3761770ca7634e7680f8cb62a553dffe632cbdebdc2b4941c1de4d161677f18988dd4079700d48e62835d595f038a68b3a301e3e13f7dde9ca362c4f58",
        "l10n\/bn_BD.json": "078dc6f52fbe27954f08443ad37f5e42c16e3d22fe4486ed80c110630d3c4ae171ae011f644e561466493803927094e072a596da42d7588fa4333efb6af2381b",
        "l10n\/br.js": "b3c6c00fb6a5bde98b5b4596a7ea3e71cf0a9562b08ebe9450952a6c275d941566f96f7427dc5a50efa20cc690cbaea5ba243c8f788e591da3c2c55210f3d104",
        "l10n\/br.json": "a3c9b622692acab0e2ddbdf6c4a811c4fef90d4e84f4ec1b47fbba2833561f6fcdaa94f155086d6c651973376c0a515d1514e77da1aa09f0ea3f772d63d0a4e4",
        "l10n\/bs.js": "418a0a450b27bd729967e30777836a960da9386d2e8248de62df4f893f4442f0500f7547f1f92cd7577406690de712ac34454a78b0bda95437f2f4f0948d667b",
        "l10n\/bs.json": "f35cd644b7918dfd3b1072fc768ce46ee3d72f8329eb062f90971f130dce08e75e35ead347b4c9fd0cfde72500c05d9266f90c14601b087aafeb653001ad5c30",
        "l10n\/ca.js": "34e703522f7200a2c5437f05823d23a28ef695e20258f24aa3413c0fd57e875e6aaa515c41be03c4bd46bebe0e1c991804cdb0b314ec83e56a547af42eaad7b4",
        "l10n\/ca.json": "45e6a00b2a3c110e55e8eee679d490603d0f2c59227c46cc5102f77757003d8109f2db6790bc1229be3c909c33e66edd2c1095d0adf6d2d45ff1f87d197c62b4",
        "l10n\/cs.js": "c7b9bb33b824508af109d749eaf7f1e8b404f3e57c13b59512b4056dda1e30c5df28794825be0d9a0dedcb628b1c0a37e43072d6da21af770a2b7637ae6560ad",
        "l10n\/cs.json": "3ee47d243e2d569e081a4c2bb980700753927c9bb0a4a3e18369174ce37edf937f1c46bb99df27697f8f655783da3e8aa5b549a90597626ada1199321e4108ac",
        "l10n\/cy_GB.js": "4c15c9f4cf3cf82f673fa917d90cd51aa0e3ae70a27d22b30401963607a04a63ac8e83c69800c4bbf4ff670bd57a5ece72a0f7ea004f358378ff583b19c879d9",
        "l10n\/cy_GB.json": "d6213e831628cdd524b04e7d40942b65929f2ed66513035e8cc1bff4cf8aa311f16a529939c4354acd1ef3060ef834bf26061496255bc76e86fe79863b9decc5",
        "l10n\/da.js": "a51dd2725a63b9f2b1006711270bde7766c92695785e08d152d193eaabfcda78510c46969c4702a7ac341d2851e2f5fe266f909ba98af4a741416fcf208ddc15",
        "l10n\/da.json": "2c365642d321b18e6d9b4103b5b8397a7b4a0af9c99848986309695c6ef7863aec53525e828c1b0cd04d87dd88d7d671f63ce1b5550ec167be7a9957ec761fe9",
        "l10n\/de.js": "156b01bf41bac9c9b0ac05dfd42a3f6f15b1d2cbe7001d19fa3e47d6b847238c0c434a6d59b868b0fa2cba7bd3c27326cb583e531c3498660846513fcb2d6633",
        "l10n\/de.json": "98ca2a3a891bec6effc007fb59cc61e50682eee390c07bfedbec2bdc253e1995c57a3f963d40ef19a7a8e5b4bb05f869759435d5feaff985ba9f464996bb7f09",
        "l10n\/de_DE.js": "0a9329ea260586fffea9a82ba8dc8e668c9451cf464b4a7fa1dab41b55d7d428d5db0cf3b8992004759f3f96d54e886ff7c7df2fdb00147f29ae6564208a9492",
        "l10n\/de_DE.json": "b4bfe6d36e7985325070c5bf93f3901fe97c7c0647cd0ee3da8a7a73e4add22140c9c6656a5651674c23148cc6481377aef7d85ccdf4f9409d2e603134c6636d",
        "l10n\/el.js": "00607fa02a6f735b7996628e218303cc3efdc6f1998d55124c5ff816aed34ce07289a05cf52f1480905df9ed14f1e3cd31e9f087c84ed782d741968db84b2502",
        "l10n\/el.json": "c8cdf10aa3657f0b0e7610313fa7f7b0a135e0ae465bc82faaa9c3ceac2fc03ad01eabfee0f86106db8738fde4f11daa34540d60ce07f5da0d6b45c68b991442",
        "l10n\/en_GB.js": "6d840aed4fd9bbb4892351e023371aa067ec07daecc99641b806e62bb83bf2065fcd657fe52f9451920d8ea594d327249dbee1e23ffc05ab377e13886a258cee",
        "l10n\/en_GB.json": "a25168be85ef3ca5bc0728e0172379404d115ac7cd5f53d708934f2c081cb55b59b5c9457f793141e45a9c431e6a77849fd2d673e9e211b82d486e6dcb895c9a",
        "l10n\/eo.js": "ea44b4797203f41b6f6b69ed4fddb2345f7b3608b2324897e9764b4930bd3bdf5ed6044df10c529335c06d0bacb1ef27719a76f431a7ea2509d3610336d2b5bf",
        "l10n\/eo.json": "52b036571cfd3e50174d37ba06ed382fe41c7002b7341bf3207822f72100a328a9e49614746a53605df9d33b372aca36652ef54de51fe78da5acc82cad181f85",
        "l10n\/es.js": "a91bde7cdedcdbd807749aff25a9dfed65b355899134fb9e5e345d8eb4e4fc8941cd7493045e6a16b16a9ae0ddccffd5fa50963cad4a6193f2fe2178858784c8",
        "l10n\/es.json": "effc422eaff9f3a64b37772bff88eb6c2205287677883357640111e821e4a12fca418c97fce903c79b12b1fab2575c740729b80e24f6d630eca09cf46147c8e6",
        "l10n\/es_419.js": "242cc72a2295a3c67966430d2e6c5d88b90c6c179410a63181fe66ae4837228d98240a1dc6658e69cb4367713502072017a854bf8482c6c1a5975932b22b101d",
        "l10n\/es_419.json": "5ea05b37439dc96e9e965b0bcf4bcc4774a528f7947236b3adf4d3747b2d2b8499b5b702a716b072faf27740acc2decd03c171bfc8d8353f7c7a66a98f9ab23e",
        "l10n\/es_AR.js": "dc7165ef3b2ad1a5da71094bf2f44976d02bf41b429d45c1498419ba19c6d3699679c97103c85a7568476530ee8d8ad8ddc795bd1c950f99f41fce57b673313d",
        "l10n\/es_AR.json": "c5095b2ed323abba1bdb9624e4a435fb405b56e4e4fc3eb31ef0813b726e676862acaf096f9d309fdb403d7225c99ebfb0b2780e4547b10167d5fe4bfef11043",
        "l10n\/es_CL.js": "afa4dacb952314b01fb6c20f386139a62edc66e0d0b65a818894af02756ea3e2a74036b6d7ddf825ba7bb111925722e7c1a92f8dcad169e98af23209b2e8d707",
        "l10n\/es_CL.json": "fd88f8d696b2f5d6f4bbf1566c3bccb342f865facb5142399027c55ec00dacc1849d599951056f99268370c52abbc7e05a05d924110bed131665c761e94373fb",
        "l10n\/es_CO.js": "afa4dacb952314b01fb6c20f386139a62edc66e0d0b65a818894af02756ea3e2a74036b6d7ddf825ba7bb111925722e7c1a92f8dcad169e98af23209b2e8d707",
        "l10n\/es_CO.json": "fd88f8d696b2f5d6f4bbf1566c3bccb342f865facb5142399027c55ec00dacc1849d599951056f99268370c52abbc7e05a05d924110bed131665c761e94373fb",
        "l10n\/es_CR.js": "afa4dacb952314b01fb6c20f386139a62edc66e0d0b65a818894af02756ea3e2a74036b6d7ddf825ba7bb111925722e7c1a92f8dcad169e98af23209b2e8d707",
        "l10n\/es_CR.json": "fd88f8d696b2f5d6f4bbf1566c3bccb342f865facb5142399027c55ec00dacc1849d599951056f99268370c52abbc7e05a05d924110bed131665c761e94373fb",
        "l10n\/es_DO.js": "afa4dacb952314b01fb6c20f386139a62edc66e0d0b65a818894af02756ea3e2a74036b6d7ddf825ba7bb111925722e7c1a92f8dcad169e98af23209b2e8d707",
        "l10n\/es_DO.json": "fd88f8d696b2f5d6f4bbf1566c3bccb342f865facb5142399027c55ec00dacc1849d599951056f99268370c52abbc7e05a05d924110bed131665c761e94373fb",
        "l10n\/es_EC.js": "afa4dacb952314b01fb6c20f386139a62edc66e0d0b65a818894af02756ea3e2a74036b6d7ddf825ba7bb111925722e7c1a92f8dcad169e98af23209b2e8d707",
        "l10n\/es_EC.json": "fd88f8d696b2f5d6f4bbf1566c3bccb342f865facb5142399027c55ec00dacc1849d599951056f99268370c52abbc7e05a05d924110bed131665c761e94373fb",
        "l10n\/es_GT.js": "afa4dacb952314b01fb6c20f386139a62edc66e0d0b65a818894af02756ea3e2a74036b6d7ddf825ba7bb111925722e7c1a92f8dcad169e98af23209b2e8d707",
        "l10n\/es_GT.json": "fd88f8d696b2f5d6f4bbf1566c3bccb342f865facb5142399027c55ec00dacc1849d599951056f99268370c52abbc7e05a05d924110bed131665c761e94373fb",
        "l10n\/es_HN.js": "afa4dacb952314b01fb6c20f386139a62edc66e0d0b65a818894af02756ea3e2a74036b6d7ddf825ba7bb111925722e7c1a92f8dcad169e98af23209b2e8d707",
        "l10n\/es_HN.json": "fd88f8d696b2f5d6f4bbf1566c3bccb342f865facb5142399027c55ec00dacc1849d599951056f99268370c52abbc7e05a05d924110bed131665c761e94373fb",
        "l10n\/es_MX.js": "83866aa1cacf0ef3a93ab569523b5c96c41389ce39e9129c68461f3e06dc810ed56692ced941a978ef0cc92c5e03a22944b46efdeb2283b00e7178c009040693",
        "l10n\/es_MX.json": "f42c10f2caeec9a9a722c02262d2467cd380c517db82f457896096575cd7f26cfc546cc85b5bae2d8ee81456579cb6f2c76656f70f6c1e975befacc3195eed77",
        "l10n\/es_NI.js": "afa4dacb952314b01fb6c20f386139a62edc66e0d0b65a818894af02756ea3e2a74036b6d7ddf825ba7bb111925722e7c1a92f8dcad169e98af23209b2e8d707",
        "l10n\/es_NI.json": "fd88f8d696b2f5d6f4bbf1566c3bccb342f865facb5142399027c55ec00dacc1849d599951056f99268370c52abbc7e05a05d924110bed131665c761e94373fb",
        "l10n\/es_PA.js": "afa4dacb952314b01fb6c20f386139a62edc66e0d0b65a818894af02756ea3e2a74036b6d7ddf825ba7bb111925722e7c1a92f8dcad169e98af23209b2e8d707",
        "l10n\/es_PA.json": "fd88f8d696b2f5d6f4bbf1566c3bccb342f865facb5142399027c55ec00dacc1849d599951056f99268370c52abbc7e05a05d924110bed131665c761e94373fb",
        "l10n\/es_PE.js": "afa4dacb952314b01fb6c20f386139a62edc66e0d0b65a818894af02756ea3e2a74036b6d7ddf825ba7bb111925722e7c1a92f8dcad169e98af23209b2e8d707",
        "l10n\/es_PE.json": "fd88f8d696b2f5d6f4bbf1566c3bccb342f865facb5142399027c55ec00dacc1849d599951056f99268370c52abbc7e05a05d924110bed131665c761e94373fb",
        "l10n\/es_PR.js": "afa4dacb952314b01fb6c20f386139a62edc66e0d0b65a818894af02756ea3e2a74036b6d7ddf825ba7bb111925722e7c1a92f8dcad169e98af23209b2e8d707",
        "l10n\/es_PR.json": "fd88f8d696b2f5d6f4bbf1566c3bccb342f865facb5142399027c55ec00dacc1849d599951056f99268370c52abbc7e05a05d924110bed131665c761e94373fb",
        "l10n\/es_PY.js": "afa4dacb952314b01fb6c20f386139a62edc66e0d0b65a818894af02756ea3e2a74036b6d7ddf825ba7bb111925722e7c1a92f8dcad169e98af23209b2e8d707",
        "l10n\/es_PY.json": "fd88f8d696b2f5d6f4bbf1566c3bccb342f865facb5142399027c55ec00dacc1849d599951056f99268370c52abbc7e05a05d924110bed131665c761e94373fb",
        "l10n\/es_SV.js": "afa4dacb952314b01fb6c20f386139a62edc66e0d0b65a818894af02756ea3e2a74036b6d7ddf825ba7bb111925722e7c1a92f8dcad169e98af23209b2e8d707",
        "l10n\/es_SV.json": "fd88f8d696b2f5d6f4bbf1566c3bccb342f865facb5142399027c55ec00dacc1849d599951056f99268370c52abbc7e05a05d924110bed131665c761e94373fb",
        "l10n\/es_UY.js": "afa4dacb952314b01fb6c20f386139a62edc66e0d0b65a818894af02756ea3e2a74036b6d7ddf825ba7bb111925722e7c1a92f8dcad169e98af23209b2e8d707",
        "l10n\/es_UY.json": "fd88f8d696b2f5d6f4bbf1566c3bccb342f865facb5142399027c55ec00dacc1849d599951056f99268370c52abbc7e05a05d924110bed131665c761e94373fb",
        "l10n\/et_EE.js": "43b71abd696bc9ff901c95cb2e0d865da7599a3439e09816013e8130e789d3e8c00ce15eafddb73b0eec5991929f074d88a875be15b89ffee24b4ca610883535",
        "l10n\/et_EE.json": "8984909ab7b1a3b50e610b4f48b0ebb80d5d534ff676df2c78362f7aa2b0525466cc48a5bcc9a73258dda5bf9ab6b60df0526e1ea3559c4dd30d580eb0d4c4d1",
        "l10n\/eu.js": "e7a01cab256713b55a6e99a40a709c46be87d51d4d062b2a134b8fd5a97e0504973d9a99181155845297f3822e7eaa369fb15f04b8818f33f48f868f907513e2",
        "l10n\/eu.json": "a77ef9feeb43d59d169ce1a92f0d0983b6a0ef77508edf25ae3482eea7ec50a72fd3a568fc13b9247ebab11e08542aa7e4548ca3e60469e0bafacf3798abcc4d",
        "l10n\/fa.js": "dd736a2712fb62bea56e7f02865891515a8f624d5008b3971d63d3e91e221225f3b1c4b9571f269221a9403bc1ef4ab98654ffa92888d52bd17d09914edafb99",
        "l10n\/fa.json": "2ad1ad00bd0d5fef7de7d9053b9ab3e01f626f209a2ba8b0eedd2b7b738a0b5c36e9e8abe09298dc28f547e550356668d5a5ef7097666fa75b1893117014b0ac",
        "l10n\/fi.js": "fe587854a3a304788306c518f9faaa86032acd23eb33860796c095821ddf5d6b42bd01a6a9ef75453db5373f58ee1cb8c1eaf51b55ca420294b98d7e37df7b32",
        "l10n\/fi.json": "dcd130124cd7e58ff7676b92be89a61286be3fcc81295919036d938224e85503d74ea6e590a32db64d38aaa9b622eae64142dd6f3c8c31e594da537e104510db",
        "l10n\/fo.js": "27b514c68b79e9bf1e8dbbcfa4a624c9d997511e85ab2c040e8b29bb0173391a0f77eaebf686c528b9f21346d29439b09fad7568706d6356858fd199ab190ac6",
        "l10n\/fo.json": "08cff7402ba46c3ae7134b6ac28ef1ff28a64883f8ffd47240963245226f31b217d37101f3f807c38941b6b1c9788cd52a39b9700e8e532c0e037aade90bc5e3",
        "l10n\/fr.js": "b8cbaf408c02571bf8224020dba16fde5f2a7c657526263ae6ec1cb963b50c65f8ed1c90d2d0b29085623503475dd1e45e7cb750cefa826d3bdf6249877661b8",
        "l10n\/fr.json": "545a93fff860ed21ebe0f62b31c113876627993541c8a8dc8b8f66e7451652bb506bc8b5d4dfab6444879cb5900aab39714b92d1ab2359afffef854ce6e59e5f",
        "l10n\/gl.js": "3cca3bc1d3172b88e3137d05c2b207cb5a6b9df09831a8193aab50948be38ae6a2731fdc54cbcd7cdae8bb0324d225fa8d5de9034e1d79270d3f8ab4fb693ce5",
        "l10n\/gl.json": "f4439b1acf89354019d1301c91b7df2c1ee5a879b2f25c1e89dfe9d8522acd6aca4b0c10bc56301f5742bdb77ca252a6ece8e38bd5f9f7096c17194fc3d371b7",
        "l10n\/he.js": "7fd469fb546c9797548f40365e4c72a355e984af6cdceac9d08cbe1f9aae6a38b6d418abdaebaef40d77e68389669a5aa9a9fa2d18e028b639ce268df0c79ae5",
        "l10n\/he.json": "2498f9d37d0ecb9e492053eb0e4fa206cdc95c802250502240e42181d895b23223080487ca4eb2f641b10f655ea023edf0a896a6d70936fdfb44dbdaae3420e0",
        "l10n\/hr.js": "68f5bc5a903b0a87f16151378bfeed54234ed53a6c5edaa59e7bab0b5d36ffa5c7ca8ffe674d737fc48b1487cbccd4d11a6865a062428b7ac728bee297234d36",
        "l10n\/hr.json": "23f2f0121219e61cfdcb00e63c288b7d1edd13aad5ecfde7dad30d82e058c15f0a4896059ca8857d0c9a59ca2925da68c4f49f5c0687e7472b6247a4d867768d",
        "l10n\/hu.js": "8b7c256b52788e1c71365745221676565708083265b341ce9ffcd0b0578c1af57db4ccb8d4d6d5e19b2d8c15e37b707ef0c2261c7daa846b48739a223651a45f",
        "l10n\/hu.json": "d2492e650ab4116eb14d61cb26582d96e05cec2f745f500f4ff31027cf421a06db7c0c5411cac2a3098b7a3984d02fa7cb30a828177f659d16a079588bb64b90",
        "l10n\/hy.js": "44b05f2655555a9a1bd64e92ae7af3b271446cafce913b014a41e5f0f7e6e5a8c76c460cf000f940e65aa49bab00c611f89a2e93861bb84bb553fec93c2e3392",
        "l10n\/hy.json": "bae77b538abc154458d61ddcffffa0c5315f7a708d137143bf1e0c96b164e4469935116364a9a250f706c7ba1d8eb2a9b5c1a5748b7df81708fa7d7aebbb14ed",
        "l10n\/ia.js": "c4c16ee8f36d84eddde83e1800e7ebfc36cd23c41a19e5076a49f8f0bc2d010fbaa3e2a15c3e68f60b083d969ebb881ffc25df8cb6bce9cdefd245a05cf69dc7",
        "l10n\/ia.json": "41a051c7fa0a79eab4f71c4f3ceb8f31751ff43c336d8574996970524c4de2740a7f380f55ed9900a1eb917a6efb0dd727ea14a1bf6faaa9ead1fdd6474b77d9",
        "l10n\/id.js": "e5a0a7c07fa54c58005eb9a108557b82c03e60ea26b755c17c6dc289358d7e1cad9094296b9b98f65de604a18d116420441e620a0f4aca4496df9ba3eaf4fe64",
        "l10n\/id.json": "6af9243562448e15faca8e3a1d742164dd30b9988740e7adc6a2b413286d64795bed93cd5f1faadb8b05f99686dc79ff5144cd9be6ab3ee45c57b0e7072e91a3",
        "l10n\/is.js": "f414789fa39d3a574c667ba2a4305b103213dd7cf3af65af486a367f31fb4e0f75e53d72a3149d9a28637f114c30cb4545a761cf8562784982c7b1c6304ad1ac",
        "l10n\/is.json": "7ee92d42fe4524d2cd2b2d6a23e7584ed406657d820ad95b8195eb2973e9cceef028677a300eb442bd82406af61dd07813a1fa38161d461f0c1931bba206fabe",
        "l10n\/it.js": "4f3d80565f3fafe54ec05d4978b87ecc254053568447ae1274a68fa313b384bff6452f9c5fa69e673fe4386d1363ea5b511ecc6377d1171ab4d4345fcf3b0e1a",
        "l10n\/it.json": "ec3d13c55b2d47cca93565ffe57a9f94f40d84381f513f3aa44b03e90660f87fc414cc578a526f14c958fa165b9ffbeb20bc693ce689762151715c3126e409c6",
        "l10n\/ja.js": "40230884eb8f6bf7c8d7e53c16994372bb2e9eb36f67c8e440444d539275bc54cd6b4930e273360d8257e0b3997f8dd62a501d468da766eddca0f0a8f48619ea",
        "l10n\/ja.json": "92c5e1bc0ed4ff19558d81438cf9014485e5be6c2ede6411d2ea1880ef78dbd36ec4677bbddae0557318ba2e1304fe526a06a35b2f8de3380ba7f4c52d4a5d39",
        "l10n\/ka_GE.js": "2d7c0586dee37417b33b239a9294f0ebcf2c607dd975b7745a1728cc5d191925f3b9a9f9be075534aa4c6f2f12ff58b624f77b2881966dbd5c04994927972da3",
        "l10n\/ka_GE.json": "775d3843cd9d40e3f3777bcd3520f141bda2c0936cc6c2d23158f360bcbf022cc435b9d958f4a978dbbf1e9110ba6a25d91af78af2032ac4188694fbd6fdcca7",
        "l10n\/kab.js": "1b44e3b6a53631feb6080f567fdf99197c5302536202b54e911ac0be0612dd7a9f6a42d62467f2ef567a474f40c7646aa0e4e43adfd7084060261e99f35637eb",
        "l10n\/kab.json": "a8cddb5bfd9b6ff7a9b3bd375246d62fd38b1241ea47bd162bf483b855cd2c97d13c4ced17371c498394f71f1db7a0fcb48194867143248a13aea19e4dab9593",
        "l10n\/km.js": "005d9bd37cca9245ca7170908a1dafb0c0cba940a3cf5b3a5808e92dc510a2667f3ab470a81ed06e10d7665940cee29a07e86a1458fdb22e924a780434acf4cd",
        "l10n\/km.json": "219aef72462a301ffbf750881ac3b96a096c146f064df6b8249235c43d1f4ad51f7953373217cf30c814367e4721ca751dd92d48831c3a955372000ef526c09d",
        "l10n\/ko.js": "30839be1bb6341f48431e5e00a8f3fd6062441c13b026498658e4baae28b1a108d844b511006a88871be9e8001613cad3eb606b89c7a84d2f2196e1614c1b3e3",
        "l10n\/ko.json": "d47be1ba35cbba23333a8a3f9e06e0aa436170d3441df352ed999b2b5ac28fcf97535314d965b76a3becba0efaa072ae21839ecd68e2dfa559e7696d9e0ba9d6",
        "l10n\/lb.js": "55f9ad76c4d5644893a287e89b7ba98b8cd72b29cac75e6d35bddd807ca3b9ac2e2295546a1765906be51abe4cea62b372c0f6a2683d7cfdcf5932e2228dfa57",
        "l10n\/lb.json": "53ced2fa579d1885338848bbe7293b4aa4601ee3e460d14821afb459451fcf851f619f42c61710fc55bafe08865557f719b07fdf5796737515c2be8df1fb1030",
        "l10n\/lt_LT.js": "801977ff5808229c054bb8eb399f6e68dc73259e563639159be677c042fbbd026de6b9a3990de33e153b65804f2740c7d7be217ecbaac97012d2f90631c5171e",
        "l10n\/lt_LT.json": "7648fa3a4648ad8635109c47e07eddfcc35b4b1c1855e3d6dc49ca009e6b3f3e203cdc948ab9cb86bbc659b0559105e12178838e8ccc384bdc2b6afeac59a65a",
        "l10n\/lv.js": "49a26b4eeced5acb90c219de1b50666e1291da5e34dc084a3373294b9d063ea59f9b4308ef434986017b9366b3b0fef31f45694b255e10667ce932baca410317",
        "l10n\/lv.json": "4dcfbecae08ff1984c6f2b12a850b42dfc56fec0f7ed00bd80ad4affb6fe690e8ae3713c4f4b26411cf6e777d5ddf2862113e58ac6cb7b970e7b791fbf079896",
        "l10n\/mk.js": "303c911fd3c7fb399a61197405617f1e2f076420ad1486764ea494ea64b94ae9f051d01c0b844de3ab2f6b5e07ce4d8621013642e67f5c4dff5223f308a7d1b8",
        "l10n\/mk.json": "9aa5d6973d91618062ca22ad6447f9b71cb9c40e7846fe85bc3bcac640b7d0f2ebd308158c1400104281de2d8c10ce77aa7e12248a1915f79dda9bd1147b63e5",
        "l10n\/mn.js": "fa38d0be696130547025df1cb3c1572621d741a69967cfc95d70d0f86a25a878ceb85b0d1c82aba62bdbeb0f28662883684f210338cd0be8678c88e9c1dbf37a",
        "l10n\/mn.json": "c91d4950805d73c64d86296ff1a3081ebd740910f1de8b0834e9990c705a039df0c477beb59e16cfbe184ad4c5b6528ee68d779d109188645675193f0be29bdf",
        "l10n\/ms_MY.js": "d64cb0da932616c794e7a699133809b8a40d3a1d30fd929816481d141a5651d83d35408ed64ba6870b41ab23882f328be90685d24cfb956c2795ca9451c48eee",
        "l10n\/ms_MY.json": "2e24704e62db474bf516f022b109b4993d8140e8b5e9f13b7a20df8383c77c9c0c36164989cdc4a36d0d6c4214ea7367103eb97ad924ce47ce0499cd2508d636",
        "l10n\/my.js": "9aaefb5476e40492d565f36c19052144b7418c0a5cf9a09a81bd88df391a2c224848a0e84c9af1fea8f332f9f6011d7bffe931aedcc71ea784ccc399f51ef050",
        "l10n\/my.json": "247dd8ddb7795ccdb53b64610995b6a2026f70fc068223d4c1a3c08d4e70799ddb50a2b568b6848b53d2c8025399b2f94ac8bd4b3b51bd315217c47282237d09",
        "l10n\/nb.js": "df6d0fcc366ca8f89fe657c41e21a527fa08b4639cc71ee0c9d1d20decae3faeafeb51e3f10974640067ee28c8c4e49dab0546acf47357b5863ee5e1d779338e",
        "l10n\/nb.json": "1769231aae47cc27605529037f2c7c54799020b31aff5d4375d7e9d8da343f87c04e4d92591b185bad65119ee829b17bdc1a9b2380307359defc265138dd13e3",
        "l10n\/ne.js": "689b9f8f0ead48f1996fbaccb7063ee60bb90f255062fe2777fdfac12cf0b2620cee2dcbfa0b590d912b713adce007bcfbbfe2481fe98cbd7bd48e05dda1b916",
        "l10n\/ne.json": "2ae1e857ca73dcfa8eb59c130277ecaf970331dd334775ed4cac29d7acfc972ef6f15515d9c215d8ab34a42e920307485f2115a50ce8823bfd3d5ae836b2d1d4",
        "l10n\/nl.js": "9c5b2340c43734917c54a301cc91b73a74089d5ad09e9cdaddbb2ac01c8447cfd2cb1cf2322e35e948ce4b827fd650b989dfd22e64eae57bb40f9b6f152338ea",
        "l10n\/nl.json": "16c6663911927ce0e327fe3d0906ee2fd6e51f4d34d1b6b710ca89ff4bfba5c79444374acc004abca5176e95200d299e7a774726d895b7158abc2fcf087b9f7a",
        "l10n\/nn_NO.js": "9f9e9cb7f3203c63c0341d6016ea700e2a39d959669962ab5dd5670ceb7b733e64b25de94c2d15f9766096e37641655610b69f2dc35fd95cde73b566b5674e37",
        "l10n\/nn_NO.json": "d60949fddc988993e11cf42163c45c6d61134d0b08bb1590697542ef9d58536bf2c4e355517796d710a7ea54c35386d69739ff5153fda0fe38da8b9ae9cedf65",
        "l10n\/oc.js": "4466d1b0ab06971be2305bff91ad5450153686e5696c8cb0b26ee073ae0eed685d1b50e961c3ebcc3e5ec47d14cab429924296fa16d91a2a2a4b8a6816317755",
        "l10n\/oc.json": "ba4f0e9c379b1d2ee991585e26bff940908037cc46b85d141fb7e65d35bf26d4311f98b9a71e1c2eb3b75d741bbd8bca3d0453f1e76f80204be4e1a100998429",
        "l10n\/pl.js": "b7570f6da2f80c55799d9f9012c3d6e2e394a3f3a34a775ce90fc6422d90363ffefba2289ad5a453b96ebebfa0e94c20da331460729bac991e362d5ac1b5494b",
        "l10n\/pl.json": "d6411c6465cabd751630c83fa3f204a7a08b6871cdc25e5c96fcb92e48a6d6f689894477602b7ac9a2eac0a81832b1d7959f6ec896fc7086907c3a253b87fa15",
        "l10n\/ps.js": "a209b4d4fcedcaf05d24af6ccabb471911413c70906db63e40ecc9e4c4b0d5ef017afec1aba31c5a38586390141beff1d6c82d03a062af2f4999a56956ead008",
        "l10n\/ps.json": "edb260ccd3cb77f6014202b254bc3c8b8319a4319a7b5ced7b4904ad765bff5207549f80b4a13b2b7d77c01d77843be8401d166ed1f7713aaeaf304f88d68ea7",
        "l10n\/pt_BR.js": "e544665d1e748c392f889e4c92c7cdaab09a235d71b803a96d468df93a74b0b3d3a283aad3ac11531ff7975084907e2fa77cb71beed0ed975d2954f1d77df1dd",
        "l10n\/pt_BR.json": "53157b01f763a77df43bb0e5b59ca7550a289486a328f01667fe0d3b76600542fcd2db1cef58709fd37bb817a99dbc933589dc5d17518b35be8ed9ffc7121e74",
        "l10n\/pt_PT.js": "6a4eaeba0e684a8e70b2e953760aaeafabc180fadac29545a730cb71442e9e081f3fb0b1bda0bbed2cda6ceeb880e4fe27218cfd2121d499a1735440437cbd49",
        "l10n\/pt_PT.json": "ebad690eb65b8c39449ffa008beeb79dcef7a8034aff582705fc7af3e535442a7154526216ce289040695142b4e5e7e65c439314435f98db0577a013c868a265",
        "l10n\/ro.js": "c9924602d337540d74e83d6562ad9a797ee38c3bee11f421d873e3cf61184ce1a3babd969662efafe28ce23d39323c1b17b029689a4496590566918101b3c3fc",
        "l10n\/ro.json": "06276fbfe9840c648e641e9f44de6f1ef03d50df6f0281a0dd606b2a394bd3b8f3785d66dbedbaddb81373654eabce3781a76f02a0a3fc2969b5280d4ed4a0a3",
        "l10n\/ru.js": "90b739bca026c9762735e732d1409d6ce325fb3c90b3980cf58f248f7ab584437f701f311a8c3932b24f5e7585c99672688e81bb11f738a6d9f81364caed80ec",
        "l10n\/ru.json": "632cda94592f1e0210c7bd22860d128eec2361e6581132220f11f8b4d4ea3c74ae94da70c97e1cf97a4d59cea6e70fbf2c35a2ecebd419a4042bbe08b1e5c628",
        "l10n\/si_LK.js": "4497f9aa0ea50233cbf09b19dd8fab23729a27b4b0b20bac15f0fede825dfd064c01f3a979db21e17dc90198ed1573f6d19632c7f7ca3c888766c79dec520e48",
        "l10n\/si_LK.json": "4dfac50bc1b732424eada5484470bf808afc541ebb58f1c9b9b5430ffd655eaf660517cb04b69da0c3ccd4af7d435fcc3a4ee97cbb882626929ba321058c4949",
        "l10n\/sk.js": "4aa98e96134673725a01e7b603d87f1f9c1aec1fe5b00ed29e48ea7521152f364a658606c44b6b5e7be13f0221fb87a17b050775b1dea1647378f7062531fb4f",
        "l10n\/sk.json": "0a6ce4e4d1544494880329e8567714827d6a7a111bae2e92ac0dca19a3637f4179549dc54e40fbe26e2a2d13e8d85695803aa799cbd4e5b0edb6f1542636ed2e",
        "l10n\/sl.js": "538f04f04ba0c1be6a88dc39e3140fc4f91fe0f6bdd470457c05d21bab5915518d7b0ad99925da6e621ddd4231d13ac291de6eb84e857397e5ac6962d2346217",
        "l10n\/sl.json": "588ae16dd045ada5aecd627b9427ea1adc35a6dd7a50b2226d5c140d75a6642332d04e4cc5ed6d37b982edee0fe60ab7a8565bb5d22149fc125e907ebafa25fb",
        "l10n\/sq.js": "571a2c72f4662162ec154570d39e3b204030ce589e6eb42357a040d88c6e757cd18b60891df67fb376c6ea500ef34e86efed7712ca58bff9322750008f801f80",
        "l10n\/sq.json": "afad535ab071b498b296102a7f0d29a43f8023a102c4ae5f4caa9549c01bed56156e3a3e87f063a857901dfe4ba8e1f9ac1200a962ed2ce2cede8fb0c00eb6f4",
        "l10n\/sr.js": "d28ad9650f4444761aa594e5d8af4a4059a741b101d24c2715f35cd6ac92682c1fe02ca3506480dc605e11370aca2bf767441d6a61fbf8ee27bb8a5ad649c5c9",
        "l10n\/sr.json": "f218eed409f43db230eb6b6bfe9a38be74f815b1e3bdf337e258f94d29e653d12f70bebf4742c5430c988791fd9bba7800229bf6582a6ffd8fe3014fb504e305",
        "l10n\/sr@latin.js": "f4b10d29af592e26632f6c598c5e53df4b5870fd0a87c65fc1fca7667d0df357cb1619f707720beb14b6d65bbfb780f1223f425f2c3f80938710bc7f936a6a52",
        "l10n\/sr@latin.json": "01f8d80d2618b2b333c395a00bd7683ba6f6f25a110dbfa8221103b01a01af542110431b2e4847a83330eace3f529e0c1ed11e6d9a56af120ac62b2e59f4cce1",
        "l10n\/sv.js": "29e8491ecd4b55091f734c72d3cd4460b8b67436648f6630704c14ddabb77697ad474b8552b4e4ba2e7bbfe53d0c564b6b61eee00f8fc94b5dd3c3f313381fb2",
        "l10n\/sv.json": "113cabc55bf0be0072df3e86f6db6a822f4f4d35af80e44b50bbba157ecf996b514b540953310f2567aaf2720f13ef985614f263ec1d5484159e2d22214ff669",
        "l10n\/ta_LK.js": "0ee1c0e11be62c4fe2eb0a1c50faa6e544b567a3b50098139d9257c93ec7f57cc11f344aea593c463522ed5752aa83a8357cd40dfb99b0ac1224b0017c858b6f",
        "l10n\/ta_LK.json": "aaa47247742ff02a03659608ebfc7e5d27dd77feb157f2a00b4f7f4684898d0fe572175a7aaf8ea660756864f8e219052b8e1b53353a89236fedb5288418303f",
        "l10n\/th.js": "05de89a438a85feb020c3191fcba4182ff4c933ab8bf4633fc6d12aa86728964d6e4f128ab29563602bef25490272caf26684562c4f3c9d3471d1f649e41d94b",
        "l10n\/th.json": "2a075319b9724f48ab71bf9be08cdfd28594bb89dca9b77715955c23b4114402f8fd2c5907870a49a4779e42e03a70443465340c9ffe8dd5daa91198eff362cf",
        "l10n\/tr.js": "405edc6f4a10159614db53129e971fff20f54b072a9caa09e34552bf0dd3ca9dfc336c8e07ece8e23eb41e9c442a09ed84ba82e14b3b326082942ffe4d2b604c",
        "l10n\/tr.json": "0c69a6ffcad5deb3edc882e3f19e8d37e74bf3879901438a924541cc7deed1e02de3e8e6e0ad1be1fdaa7970d8ac1f6fe7ffd53fc0fccebfe65ac1f65e9ddf5e",
        "l10n\/ug.js": "5874f2add677a7399bcf8e90ea4a2188324fff03da7145ebe9b43c11e5d02d558b31413a31c4e63b2407e95e78aa5abaa759f33768143cef3e2747879b5b3665",
        "l10n\/ug.json": "7b5724b7e2eaca159d63048a086ba3cc868da9cea024dedfab31c026c9878e6f43250a16176aed4d7734e3f8d012ea61be38efdea4267752f456f46e5449aab9",
        "l10n\/uk.js": "bb0d8a5af76ed8f12c9ad2aaf9f4879e0b0bb162595ccf6256cead9aa73a9a9e57d323fd862744bbe0b99eec26b33de267ce1589543868e4ab1257c0a7b23bf3",
        "l10n\/uk.json": "9802cc05995aa64b85376d9bb54f249bf821bf7ecb85680d597cfdeed5cc0aa57f2d28c4926439cdf46e4b0a816848933390e4b71d53cc35f3e4d9bd632d1259",
        "l10n\/uz.js": "9e17a7fa0b086aefade675dfaa2b4272a4d1a460c6a41e0ded5936580678886c958a5c8464a784911e98fb87c1c1ce36cde4885c8eb38c0e149419dbcba00f2c",
        "l10n\/uz.json": "54d9e5768388151de7bc9f4f07e205344c7fe9ad531e1f550b65cc2125e74ab33662416fac80924c6e3d60f5fdeb174b338d1cb77d405fd8e7004a19f5be31ea",
        "l10n\/vi.js": "6b8752ce6a678d8d95394db37616b2792f6bb293fb9e27669b36081b75108e49fd4fb0a3cdb4aada9a9405306600189c71c15ac1c6e277fb45ee63bb6739171f",
        "l10n\/vi.json": "b3c4efec2024a713498d4f6c8d0161cdc04c8eb7d5ff34ea5894bd732165334920bddc70c5bb7853b0b44da45085364726e45846edcde8893b752379f3816578",
        "l10n\/zh_CN.js": "3b36253b743e4ac443aff767c088b32bc5acd7ec6a570b32c0504af743607f1a2255bbddcf5cacc61edae9520827e54c1caf70f412b9855383f248687a0a3c6d",
        "l10n\/zh_CN.json": "64d6c2f3c20fa48db03114dcfc405abeb9c3f30615bcb43c6f8174c1a6e8e4c64cab99ecee683b8ef98b3ebd6a2bb0b023d78b8d3ac0771431e44f652f0b9cf2",
        "l10n\/zh_HK.js": "3f7425ffad3cd9b9adb7e6bdff74ff363f4050ad7a3054d43b0d252097193663c41b4a1e5763a1702a2b7b01ee2c5316f7aec4d7086860fe7cb135b73e46e095",
        "l10n\/zh_HK.json": "260111a0071bdf242edcfdb324323da7c92b6e96cc72ffaa2bea4698c5decb31f446d2b1287567aa33f07699eb062e195115d4ccce7bde3a6feeed10af74a0de",
        "l10n\/zh_TW.js": "32bce0c82f41426bd6e27e78e994c878a7201efd03147f94e20e7c6ec874ec0a4917d9f0090b056b105e33876a5287cfa8144be38c44341108c916a9de87d128",
        "l10n\/zh_TW.json": "2a14b043b02ddf9a5ff9e65835c88a45c1224cc6d7b4f851684ae9cd69f97573a50f87dc03e688ab3a89a477cf5f59770c81c03a0ef604dde93318bf9e7f943a",
        "lib\/Controller\/ApiController.php": "747f461e011001503675f44071457d4394d77652d1b51bfb443d9330688d2676d7e12bc1ed92676bb22d6ddba61777cb8c824cc23a444209060092da691a841a",
        "lib\/Controller\/PageController.php": "85d1c545990aad58a7af882a27cd00ab06d8525149e8dae26bc0a30442505b09005adce5b2c614a522716d8700906b517cffbb5ae1e254c3cc620114104d5a05",
        "lib\/DatabaseStatistics.php": "b4213d77a24cbad28827e8b02b6a2d4d657d0ddea48a9960f7b2a5ba607074179a3ee7f9098b5b050229f818df4e0d56b20d84066c6fc1f3c4dca35d0a0531d8",
        "lib\/OperatingSystems\/DefaultOs.php": "c8b843ed7eec1663762bdedb6a03c1c3007c939f7ea887452fabf3ab46ad72dcdb1abb90ed8e097eaf712a46e58e373f29a71c8475765a36e4fcda4aecf38079",
        "lib\/OperatingSystems\/FreeBSD.php": "8bacd6b5d219708a5d5f5db658213749114f68fd06ccbac1e220ac0446bb7fb374624d0fee747662eb1b6b998b0b3b5cee8a2a672de7bc5e4164b35559dbec57",
        "lib\/OperatingSystems\/IOperatingSystem.php": "d9dde5810ac57e0111d6d3a4509eac958427ee0a175ea92bd8788245437cca56483e2dd226baf70b065326ad95f0169368b6f15794b73cf95e9347c3b9b2085d",
        "lib\/Os.php": "6b4606d64d57ab4aac32676d0e214a57603a6667787b887a1d89b61818ce311feb91bb3728d76b2433a08154c517421745428165c3551940e5f71de202101d73",
        "lib\/PhpStatistics.php": "befbe713160a35defcd8a43ee6528346e4bd52f56bebc3c57391372dbe67aaf759551e4bb140bdd0a447a00635e33361a49c0732f75f7e2e50982b87b4c52514",
        "lib\/Resources\/Disk.php": "841383601584a94b40ba2afae87ba46336a32c719d7f5e66ec84971006d7c09f1566c6413d14084723a8e241aaeab95ee19ac1cf710e60f98da689c5ee9fe96b",
        "lib\/Resources\/Memory.php": "e216ea6bb5e5336dfd078b10233465325ad788cb18fcd75ae085cdb39fbcc747ac913f79a91c951e0322b32f305f3d4e52a6e56fbeb73c02a06128fe96cb0cdc",
        "lib\/SessionStatistics.php": "b921c5495ab9e342450d30a0263493115ca249af9bedd99cbc55c43b5c58cbc016a13d15460a415f28b203fc590caa23181890984f6e4a71216fbb7e9c0ded1f",
        "lib\/Settings\/AdminSection.php": "a422a48de87ad905324977fe92cf9f133c065b9c053049dae408ea9d8ba60c815ef80b0154b4bb2ca2a8c5c6ecb28d4ec3dcc866b1f430d515079ded6c26c5fe",
        "lib\/Settings\/AdminSettings.php": "b2dd82e8e37df964383db4b1597cb1e4ca985f1cb1200c4354802fdbe1c9932c3844fea2d9a51f208dca5d863f4aea560976b752412407033c5ca687e8011fe1",
        "lib\/ShareStatistics.php": "2c125347e90416b74210a614fd860fe986b3851f63f929ec75e1c78a4372fe7d63b6cccb9d16808a3af95878697a3265d29f7254f2426812f2be41d9510b88d9",
        "lib\/StorageStatistics.php": "2ec583edfa296e5e6912fc181223b0786fe150d30d377238f32cdd43b712b2f29e50a998a08e5e1bc507e0b32465cb01a369b90c4b6e94653886490059455d94",
        "lib\/SystemStatistics.php": "0084cf9c576750518f2e2efe833bbc0c0c67e001ac4de835ecc61635685a2e97263369e400c3cd8641cf4239bdab0372b7544c23118b9d08ac7ff56563f80d1f",
        "templates\/settings-admin.php": "3435ec9fb0177fb34425aebd01391bee9bd3c0f76d63c24aad42f875cfc4d71774530309053b4f12894451b4f0ea4eff8284d01311f6e4667d0eca42bd0f1c20"
    },
    "signature": "fn+h\/uzYAY8bHTeT7xpLEuVK9QsNw8sFLNiSbcTt1XDe8G2bVusylf43ZXOi\/qkzqwQBaBr2bLEt445GOR7yEPPSrD7ElYLM\/O1cbPmfqozGuEGxAnFikg+Nj+XdsxMKNjfjP95B4qxKwMyqSz4e+MaqoIc7rDM4nZ6JeYinFthCB7860hCL4AdaCRM0+BHqVd8GKRO24IzdX+bilbcgp5mhEI28gV9kjys2VXgAmXU4X7o8NZpypwV6SudAs+FbKId5ECDMJIIQQt5ByPJZ1Ajkfo3eHg9WtqVRJdaQT\/qTJfEU6qRKO4f20h+q6hScXFfndWhjiy3ICChOYYUR6g==",
    "certificate": "-----BEGIN CERTIFICATE-----\r\nMIIEojCCA4qgAwIBAgICEAAwDQYJKoZIhvcNAQELBQAwezELMAkGA1UEBhMCREUx\r\nGzAZBgNVBAgMEkJhZGVuLVd1ZXJ0dGVtYmVyZzEXMBUGA1UECgwOTmV4dGNsb3Vk\r\nIEdtYkgxNjA0BgNVBAMMLU5leHRjbG91ZCBDb2RlIFNpZ25pbmcgSW50ZXJtZWRp\r\nYXRlIEF1dGhvcml0eTAeFw0xNjA2MTIyMTA1MDZaFw00MTA2MDYyMTA1MDZaMGYx\r\nCzAJBgNVBAYTAkRFMRswGQYDVQQIDBJCYWRlbi1XdWVydHRlbWJlcmcxEjAQBgNV\r\nBAcMCVN0dXR0Z2FydDEXMBUGA1UECgwOTmV4dGNsb3VkIEdtYkgxDTALBgNVBAMM\r\nBGNvcmUwggEiMA0GCSqGSIb3DQEBAQUAA4IBDwAwggEKAoIBAQDUxcrn2DC892IX\r\n8+dJjZVh9YeHF65n2ha886oeAizOuHBdWBfzqt+GoUYTOjqZF93HZMcwy0P+xyCf\r\nQqak5Ke9dybN06RXUuGP45k9UYBp03qzlUzCDalrkj+Jd30LqcSC1sjRTsfuhc+u\r\nvH1IBuBnf7SMUJUcoEffbmmpAPlEcLHxlUGlGnz0q1e8UFzjbEFj3JucMO4ys35F\r\nqZS4dhvCngQhRW3DaMlQLXEUL9k3kFV+BzlkPzVZEtSmk4HJujFCnZj1vMcjQBg\/\r\nBqq1HCmUB6tulnGcxUzt\/Z\/oSIgnuGyENeke077W3EyryINL7EIyD4Xp7sxLizTM\r\nFCFCjjH1AgMBAAGjggFDMIIBPzAJBgNVHRMEAjAAMBEGCWCGSAGG+EIBAQQEAwIG\r\nQDAzBglghkgBhvhCAQ0EJhYkT3BlblNTTCBHZW5lcmF0ZWQgU2VydmVyIENlcnRp\r\nZmljYXRlMB0GA1UdDgQWBBQwc1H9AL8pRlW2e5SLCfPPqtqc0DCBpQYDVR0jBIGd\r\nMIGagBRt6m6qqTcsPIktFz79Ru7DnnjtdKF+pHwwejELMAkGA1UEBhMCREUxGzAZ\r\nBgNVBAgMEkJhZGVuLVd1ZXJ0dGVtYmVyZzESMBAGA1UEBwwJU3R1dHRnYXJ0MRcw\r\nFQYDVQQKDA5OZXh0Y2xvdWQgR21iSDEhMB8GA1UEAwwYTmV4dGNsb3VkIFJvb3Qg\r\nQXV0aG9yaXR5ggIQADAOBgNVHQ8BAf8EBAMCBaAwEwYDVR0lBAwwCgYIKwYBBQUH\r\nAwEwDQYJKoZIhvcNAQELBQADggEBADZ6+HV\/+0NEH3nahTBFxO6nKyR\/VWigACH0\r\nnaV0ecTcoQwDjKDNNFr+4S1WlHdwITlnNabC7v9rZ\/6QvbkrOTuO9fOR6azp1EwW\r\n2pixWqj0Sb9\/dSIVRpSq+jpBE6JAiX44dSR7zoBxRB8DgVO2Afy0s80xEpr5JAzb\r\nNYuPS7M5UHdAv2dr16fDcDIvn+vk92KpNh1NTeZFjBbRVQ9DXrgkRGW34TK8uSLI\r\nYG6jnfJ6eJgTaO431ywWPXNg1mUMaT\/+QBOgB299QVCKQU+lcZWptQt+RdsJUm46\r\nNY\/nARy4Oi4uOe88SuWITj9KhrFmEvrUlgM8FvoXA1ldrR7KiEg=\r\n-----END CERTIFICATE-----"
}