{
    "hashes": {
        "appinfo\/info.xml": "94035f4a1f260d0918e1fc5417aaebf033bd64dc5a98c3b053f1fbe8b8c4e4cb5e75e64e75fb61430cf2fbb4828f333884f935a9c772fc87cd4c8768e5728a67",
        "appinfo\/routes.php": "145aed11263c67a73498e845203f406dd10c669a2b55fd68b8efa92c3f24e540a9ec079a17b700ce13f4c7a1fec21c42f3db4b1bf3295cdd0e6e973844eaecfe",
        "composer\/autoload.php": "04d4544219d4f1489a9235689d6a5caf78e5a7f3242c361ffc1d6b81d8abe08ff344cff3b35351fa3d3cd9dd0fac1485cdcaf9d730074d46bd9bbf808ae8928f",
        "composer\/composer.json": "c1dcd61b99e604ae386fca004535ca8cdb1f7b3da734664d099473a7d89db00cd11a43b9c402d0c3877a7359b7ace60348ca162c386d32954e83ec550bc900c9",
        "composer\/composer\/ClassLoader.php": "2b6fa585122ace1ba816410acbd8372cb75329917aae6363dbad48e396cca581452616e1386a2e445a8fbb0e461b988279103f4f89adf704bce7726f761abf0e",
        "composer\/composer\/LICENSE": "f3bb64009f41a425df5a9bbab53490f0eb9b74fa8d6aaa2f57efb928edc4ffff330260666edeaa04a91fed708c3663371cf01b284f3a08d6698aaef7a23f355a",
        "composer\/composer\/autoload_classmap.php": "bc0b503995a0644f15e8c06041c31293046127a3475256f69ac5e6dc5db1ef81ee095174e76ed43dc8cca57be2f9888ce8a0e9ddef24bb6b5d7ad7d3bb38e48f",
        "composer\/composer\/autoload_namespaces.php": "dd8ee31d2faa9014fe567e1f954b5e7f450cf06feacbb96d4df663c59b1a36a0b7d26ad41b46354bd14f282fa7899298137208d1851099cd3ada285650efd90f",
        "composer\/composer\/autoload_psr4.php": "66e8ead91bda87276580b426f6e36381abe26d23dc2957e868c444de8d804a5f1225218fa903930734cce7e02b0a9509cf920f771a10472435aae465abe29fc1",
        "composer\/composer\/autoload_real.php": "a78cd1297472887be908fe106faf887b3d1de72e376aefcba543392ad7679ecd6df840f9d3ff901da8927496b57332975eb46c5be916af1b773aaa64a6adee63",
        "composer\/composer\/autoload_static.php": "d7616e342349ba227c9948941a44b7462ae956c6f9aad7ee14e0df04ed389172a7f718e19743c26947755d375dda7b2c4e4810e0a04df8771c312ce3b4101272",
        "css\/dark.scss": "84117b64c132b991dfdef756f05fd344a1a3f4e1fb1db6df0cf431732586c9cc67c951719955e852a2825a7c826937a10494612c096cb5da4a9c64ffddccc272",
        "css\/fontdyslexic.scss": "97cb3b77c9df73b39e09beba45e8461c780e21b02862bb9d2fa7ed7ea372beb611a5a7bc8663ba3aa258b9fbabff6f1e564546bca04da3d3ba42aedc7f93a926",
        "css\/highcontrast.scss": "b6dd782342a28ca02ff6f74ea6e3f428cce1036f3779c04eeeabeff400482968f63ac86f3f3553b5de84888dc8399dc0b3cc6ea515ac4dd5c5f8a9e4913a12b8",
        "css\/highcontrastdark.scss": "72d87c107052de2c9e5e47911531147b463405328ea0e9bb1af4b31029215859b6c401f5934dd01ce897e422fd3d9f696fcfc7e3670381239666fc9ec9701c94",
        "css\/style.scss": "f251c2fb514dc0880a4129a84aaa920b2933c93a03d83ad96d523906c116466afa76ffbf5df18d82dc1e5866f79afe89343be71c4cd6ab08f74ed9a1d9256d1f",
        "fonts\/OpenDyslexic-Bold.ttf": "5e33bbb96e2ae84251a94edf326fa9c13c61736593cf97aa13d99a67073788537bbdb4164c0a96bb8bc0fdfc0c9e2c346d3b447fc523f4579dde9966c2fdd031",
        "fonts\/OpenDyslexic-Bold.woff": "81d859e3dea435ca9ce0dd250d53fddc7c4ab7ded3c96e20e3de8e4ad61918d2287adea3cb345c8a2810df2b44522062b8bf8b6b09ea6668e652d2823ca3e0ba",
        "fonts\/OpenDyslexic-Regular.ttf": "0745efff08241def7af6340582a264e00e4afb2428fcef43c9ad19744607f581243dd35b626fa52fcf3750cff8951724dba73b85a8bc2d082e69ccc490d05257",
        "fonts\/OpenDyslexic-Regular.woff": "a2b7011be4a20197474b752259a42f7b3ccad1680137dc575e36b297d51db44fc6adfb70e3797fc3fe4892e07a94777daebd50901500cb5361160525963d96ce",
        "img\/app-dark.svg": "fee9568cd5dfa0f3b5966c2f8894764086c0525e11f6fcc2517d512249b654f3d234dba0712f25365a5f29a92cb923a875c8c316dc159ffdd78497d12b795921",
        "img\/app.svg": "52baa47f78de6314ecadd48d7aec3fd5fbe0767b05e780d3fa46d2a722cbfbab9f571f39f1acf7145de3174e244e9770bb628a527e6faf6c4e21845b9e6878fd",
        "img\/font-highcontrast.jpg": "633b3375f78fcb9ce3c464078c380d269f09794ade9259cba55f3b2118687a4adaccd18e2ae2cb2cc4ebf5ffa47096c2c509889dbfbd704efd49ef689c5982a6",
        "img\/font-opendyslexic.jpg": "e3036f3db7badd4799a90c2a94d2917bdca62bcb6e6633bcab3732f892f85ffde8723e85080eb41c6efe93b3dd232bcd3977334a7f19642227493015f3ff5ba5",
        "img\/font-opendyslexic2.jpg": "83178ffd87737957707bcf57772a2b35965c8390e7cf4e0343b9622be6e247076a4bedbe1e48a407cec4382654823d829ecf9975f32e3d0d5d4fd6e95381e6c9",
        "img\/mode-highcontrast.jpg": "997bd6dacfaa48ea605d39d7f93dbad87d384b8d83c1ac371f2558a84fb7b9e5d1d0868f6a1fa805c542704ccf55905fff1e554779c68072a769bf18a44b5caa",
        "img\/theme-dark.jpg": "faf2c214da3068a631e7da463b0693fb1d896c5091f2f3c523874e2ab0713803ede04773804f87c12f9fa4a397c7c3e9ec4e62196fe2eae0ccc8b7137ad99536",
        "js\/accessibility.js": "f4de70523bd0dcafbfa90660d3315c693fc10819ff7321926eef3898fca99e672aa8896d80dfb1327caccc271a77af3599c778cd4e3e033ee5436d88c39cdfa6",
        "js\/accessibility.js.map": "14f799b2cf21f5fcc57aaf6378026e8b5b01ca8e1dc49fab015db717934674660d78ee046f240a5bd4fd81535be9a752aeeaadae01f655b141de120e5d0a757b",
        "js\/accessibilityoca.js": "8ad3670d193231884c1816016e2483154903dee07dca10f94353429c5b78827ff146aea8eefabaddad937672917db29909dcb5e8dc75911cf177ac43727824be",
        "js\/accessibilityoca.js.map": "f14a7083fed51511d21aae299c5b50f3d2272d5ed8d2db81d4771a296e99ed8596c21d04e55be8517992caaf07c7ecac7eb22ec4dc5d1239e4096431f00d071b",
        "l10n\/af.js": "edb491913b29e2064c1eedf65a02fee1112c61e93d1425947a1c90447165ced9f9dc260f1bd38baf91174f81d04038e87a3f07a4a4c88bdcf764a37d5c974673",
        "l10n\/af.json": "db2cb53cd23d5f9c16ec129c2e833f9229443f46b928095da7dc8e1ed4741ab26d5551c08da5496c36ea187e754c74a84a1555afdd9995cefe989fe0d2731ba7",
        "l10n\/ar.js": "e1e0ac7d6e2ea43b13f980d39c09d7065730e6abbf8e71feadf61d37b7f2220a15ef015203e2dbed0fa8a60981b6925c844bc14f44931de74b3ed5124dfcdec6",
        "l10n\/ar.json": "68e149af70fd9775db5856b504e371182c4aaeb5d834ff0ccc79b6af0035b3d4958c519ea16abffb75a221e576d247d51c3e4ad89f3cda4ec24f8d8ad46fff34",
        "l10n\/bg.js": "b0e865f3da63bd1ac0c03d351973858019aa8a0f0c3632646a5a4906c96120018d4d73e3e6400d551b833f7031c2463e3ab8ed1b54a2e3e46beb97bfc71a46a3",
        "l10n\/bg.json": "0d53bedcae9f18e0cbba95f56b1e2bfc51b2d5de3fda80e4389f83209ac25df02848204771143486b5c929690f8a88f8298cbc3239f0453983694ffc0ed70ec8",
        "l10n\/br.js": "bf7fcb3e9a2ce7806425c4137072347f277295e88a511d4c63ba947021b775e8cbd87c5bfa425c7d2a49b5c40173e0358a42369468dd4e6c52895b686cc0a403",
        "l10n\/br.json": "54552046cb19e11b2161e062a07085bb9d7e7f6ce2613656f8b7207863ccfd0917767b00f770622078ac38009b9c5acd5fddcba2c531681902917793f94b3c14",
        "l10n\/bs.js": "0f876ced5c0ce3b1666bc8d54c91f5d16dd50cde69be93d28a0d0b5db960676d4690296f7a8a5aec5067e45aaa9686c39a268a80888f45738c54c852d08b531b",
        "l10n\/bs.json": "c239e9e7c55b691895bee8c8f88d9dc74f1bf917464fa278b98324d7b3e1b3e5c607ef231d0b4ef85a228eaed05979d63b504b36081c496f872bf3fbe820f01e",
        "l10n\/ca.js": "5f1a32fb0ae3bd1a1f2d847c16a0947d69c83087e089dbb6d8a9aa016361a9649c8b2e771cddc6bff3775f193da481b5ff180c6d231d5bbb3df34dba1120b404",
        "l10n\/ca.json": "1f3eea2d7613917afe3c5ab62ea6b1c4bf0c16604de35aaa3a5a093506d42493183d45656a57ef3b7cd02218682751edb7d12304a1b353281647ecfdb3803986",
        "l10n\/cs.js": "523b505c2317c0c3208c2d6e75d2a9d1a4764a94bd557b0684e6d0364eeedcbf282c93a9bba0f47c3eda3840c112a2813350e50d4f3d1b8b7de60baafef0bc67",
        "l10n\/cs.json": "f62e417b53408daa4dd3d10c326d652567b7eaf9cddb8d7aa85aeeb64c7ddc5fc2129044822f0f3447a16a411fcd8b3df45cf0d9792a815ffffee9a1d595247a",
        "l10n\/da.js": "25834c496c2991a3b98d73e112564ffe9a26761fa5c802593a7ff75aa13965e27fb44cf5541be9d92004d3c22f8063c4c032dd41688ec6bcf30bd17b6afeaa42",
        "l10n\/da.json": "93fa610c85149c25de852d6246a44ad6abf9a736163124831a8a6481f2f1bad4aec3525f3fc54d72d53f1abd9206983d4c3cca587e48128bc32988fc4fb0066d",
        "l10n\/de.js": "e6827ffc2b856bf5a6508c98ccdc6fc4ee889512a0318264948f17b569e5b7e6e87c2f29ac16391cff3ae32d0ff5a6b5026468c43d10c8bc9de0754a835c979d",
        "l10n\/de.json": "5890b106e3e4631436211cac57afdb6011a0b80d50594e12e3f9c9b7b3754e5b9c72477ba54b3985371f6fcb4cfba5e38073ed695f72272a67d1397f424ec10d",
        "l10n\/de_DE.js": "eae13f73b1688023d09e02b0f8a9744b3bc7aa9b314f2c5c95bdb680df215745f9ab480eb09737fc81faefd1d702a3183b8c6b0713cd1d17ad10732e526a4a01",
        "l10n\/de_DE.json": "021e1047a3c096d7b52ac178a630166da99496dcca3ca418e7b0f9ade81a15a9cff6210deebd428509a02c824659b5d7d297a66de09fdbd5aeb051f7e0415919",
        "l10n\/el.js": "5fb7b9d347d907d57aa79762b75644cf4819e858f1b40ce07decfa9a2ac43b6c4e1436d0f82453199f991b0a1863f6d9b9b9a6208fe6ee0dddf944eaf635e965",
        "l10n\/el.json": "765bf78521ea15f92cb802eab249541c4e95b3b8b3b8a7f67ea62ed779e2e712be0419c20372514d6643f2ea6c40e0b5fd3a3c34f9f201a342c1c436bed48ea1",
        "l10n\/en_GB.js": "79ce418250b00daab3af9d19273942340ad7dbaed28f2d5bc5de71cbccdecc4abf41efdfc57bf60eab66b34b199e4f795e68281e5d2a84600abda68401e9d890",
        "l10n\/en_GB.json": "d57fa0f0d753fbbf8c90a53db24357462392df3244222f5c711cfba9bf3c7b99f1d2273007612bea6501499a8a866d956b130df16cdedd0b835f8701edd493aa",
        "l10n\/eo.js": "a5ee5696cc1cfe4b77c547a4dd930700f69fc2020ae88ccdf733ba0f13537157d90c1d21af580779c7cd7c91282665da31749db12293e57b4416b2f869fd5cb6",
        "l10n\/eo.json": "6d0f34997a85a63feb7aef7699f44e9588be42ca65179f251e32598d4e8ec3002d2f4ff538c2e1621b2b5cf74571c60a053eaa1a9387f59d22025d491ec87003",
        "l10n\/es.js": "90cc473e0e1409ca6a8b9ac7308e3a0babd6786084d9f2b62ce4bb70acb3d010897959888d969c490b7c4f0e50686d27d24bec6829af07d1ec920aba0eadcffd",
        "l10n\/es.json": "9dbd4e64d2c6424844ac8be4bfb357fbd4d005ef1941145136997ed0f693918e64634e6b0aeac68de73ece62f48c2c8502938a8e7749dbcbc86fd2c99a38f815",
        "l10n\/es_AR.js": "1e189e9bb7b292b69f33614cb6985450916ba15e129339a8d38b845d778f833a1a43b32d65ef694d119280711a23662096e6ae8649deae605ecb90d2dd5946a1",
        "l10n\/es_AR.json": "63344fc3b176e93117ec2864d6854d07a79259aaf111b091f8b74a3ac37027532b32d2479aed83d67fb6834c49f9e63c0ce55f0ae1a28ec822aeb932cde1a70e",
        "l10n\/es_CO.js": "933b668234e37574a19b6a59f0e5d51e69d9cb016927dde691d0f897b923462c11127e3b15b03333a920bfc29ca33d10a9e8283121570deb7ed2e0ba269e031a",
        "l10n\/es_CO.json": "19fe4890e638b6b7d6cc3b39d07fa9a641ab571577e0eeeda2b6f1feaab24fc80929963bdbdae96ba9a2110d9ce30886770c4e06c548f6ea12cd41f516fd7a66",
        "l10n\/es_DO.js": "0995900dfda409708bad1f26abca7a59345a6f819ac9eca8505d755421f1d666cc12828f1df2342bec49d31f0a62cdd40041ee1d5ff621f2d696c477f92788ae",
        "l10n\/es_DO.json": "86de725cd7f50ece5d1beb45bd902f980c85eec2c2bb86385e5da5917e055db2918e74462704a592b0db148c50e7f38eddc7613934a0e7e831afb96b0c722dc9",
        "l10n\/es_EC.js": "5566b86dc797c9ae8ae073cdee6704785362ae188b507fb2701fda8f2dc03a9bd3ea56c780a507ed5aeb8458cb682b9a740288638065fbdb2ce311b1cbe5084c",
        "l10n\/es_EC.json": "71265e424df5f7115312e542a38d9c310946ed4af63cae36e9d25e3d1d3eb5b8ebcc0d98fa34180ba01cc49c5dcbc1a2318cc4fe23526d2dbac0bef460d003f3",
        "l10n\/es_MX.js": "5c729d4bf154599faa9eab84aef017b5bf4ffa01b3c2dd48c297305cfa3e328e6f2b92bc65fa73ed4a508f3943243807813442d9366f4593b07d84169dae6a51",
        "l10n\/es_MX.json": "3b24ea9dbb4a3b3e98b1bd528cfdb0a81a9bc540fef26b750ceace3245de7651a18437e8431490807431babab500050d4f72552a789058937e7bab2beca9d084",
        "l10n\/et_EE.js": "6d61dc2ab28b64641534660736c670c896a51d3caf7d4716f41a7234fe05a9556bf417ed2ce893fbd59c3517afd10aef874bb9fc8a3b3c861984d9dac493fe32",
        "l10n\/et_EE.json": "93cc6d953fefe0af9782b87844a9c9c90712abd58b5946be0b9de7b7c767c815d5c3bb19c8e3880201570af771d16c695a37a2df73f4a1ad3aae343c0b7012e5",
        "l10n\/eu.js": "47bc663453b26a8f0482075c56524de17e2ad6e39c7af60d78e429f91defc190f54aa2f9e5552b7ecefb60bd2424d348fd93cfb51d64f9300f7e54835f221876",
        "l10n\/eu.json": "d5f4f4df4d8df91b05ceffc05f6bb1b89011de29ecfee3d756048fe19e860741a9f7954ecd00e8d2fc4f15dc99cc7d1ad63e6c41d943f47305b89ae8ed598886",
        "l10n\/fa.js": "4fbcc625995c69e69152e8fd9685e5ee424f0ec46a19287aca908f26b292b6227f7c238de893c0c985717e94020ebe22c0cfb6c57f110e08112807e70e5b5fe5",
        "l10n\/fa.json": "6de9d3685aeb8415ea0da9dcbb2a68133959362511e6f188c8cbf829e91a51ac5f8dcedfaaad6742295877a9650da422f84909a94c4c6cafeb987d11e7b20b5a",
        "l10n\/fi.js": "a5a1a2b94fcfcdbc754e8c16db49d1bcfb20c0a038b723d13ca0ef0bcd0281894bf455db374d0d8efb2cef4df93cfb82bc69824eb2b88976de3332375099160e",
        "l10n\/fi.json": "955ce9def0838ea2d277297033708db7eaa283533b4a9ba2614d7a3e8d62e8cce917b058fa9e111b00b4d3dade22f353b34c57189c0085f16a69f2f73ca82be3",
        "l10n\/fo.js": "3eae34c58e15b7bfa0007168461d2eaad61f099661cd923fbebc1818d8106d990b0a682936713c8e9c477a85696434ef81d1bf49340ad07fbb81e414d7da44e8",
        "l10n\/fo.json": "a40f9020532aaf75108e84cd10e9e70c2578daaac638709c763b7ba3ee019437c669af147ade6079155330afd0d9038d70ec8874cc3072c55e71aa1cf669f055",
        "l10n\/fr.js": "eaae9a6da74efcae7767f1dfbfe86eb70a0f319cd55911387b2e23370ee43a03a66daed0f37db7b1d5df2dadb81cdc2cba621737ca60135bfb119e23c90560dd",
        "l10n\/fr.json": "105fbefeaf50ba1c152ea88480816e43219c448b3a3ccb6f2d55273e57ecaa9ccc6c50c7f9db0d507488e5af3b23b318f6538a362118e3f25247daa5cd0baefe",
        "l10n\/gl.js": "44b78a845f69be4a047a89a56e8146316270d5b6104c2c1daf6c29cdb46addfc7eae910730752a69b1b89b05d125345658139e9904f99a9afc024651663c29b6",
        "l10n\/gl.json": "20b04ce4fc56871a4a0c7b539c3779026427fb92a88e187ca3d188c5c7e9641c42e881db137b622699555a9de945a6fc2f03e8686f03a034642a72a4523643f8",
        "l10n\/he.js": "93d3b4b2a9d02ff8eb2f47bdd25026b80e53fdc0ef7dcffd2f5a8d0f9e2ecf5b9014c06acd1cb50447ce73d326c5326502d031b8fcd29c1e5e74674fa91be6af",
        "l10n\/he.json": "b83200d0186c41ddf6f693ccbe2ad84727dd9100dd1e18f2e7b694f7729ddf3928ca17c479714ed6ebd3169257441d5014b6b293ca4ce9f4a6dca08203440f41",
        "l10n\/hi_IN.js": "394caab8bb1179ebd5e9086c2b79e9edf41dde00b30a2b0b773d600ac3f1d1e006ebdaf64dc6f535321d2405bbdb04b60646546418fedb336043c55163a08a6c",
        "l10n\/hi_IN.json": "72149e48208deeac0a2de31c1fffb55df92e967ae67637c4af4e238641e8bf528c5b3790086e41f6470b5205cecec8720f899d34cea4a77a57ef975516cf56ef",
        "l10n\/hr.js": "cb7d0ca71a30433a11e40cd71e86cefd51b7791006df88328f9af3256e9972b5252e6062ef197beb9def0738981d5fa3b20341a1db7991d6e3881d42cbe2cb63",
        "l10n\/hr.json": "78efd2aa974e0b00267cebe55a52c4711ee6a915f15d286f2f327b22e97fa17fb9ceddb716bbc33ee3e084c7b82c36b8ef48dedd9e4fcfe9bd3f8240d8881a90",
        "l10n\/hsb.js": "a1f329e55dc706cceed3f8b11125044d51f4153e0e4b81957de7f935da302e029aca42ba61b924f9bfd16d6fef38d1467d5ae22f83a35582f73bcdccc3997f8a",
        "l10n\/hsb.json": "6040b24d0bcfc909724df9a255ab11553157565ded37e4577a81c01686c6a0bf72c6d4b8cfaa113e1151a627d05bad4a96320afe8c12903b3e43860c0bd2ec8f",
        "l10n\/hu.js": "542ffa61a230576885145ca76b2883eb7730f78921deae586a0f5b6b1879183e0f1fe2803c68dd8d062cbb8a63e119ab59b51ffaed46f65e7cfffe75fc93dade",
        "l10n\/hu.json": "021147b538a38bf04c5cdc4a5c2c48dbb7fb49d9606d3e207446b9d22fb8b69eececa21c1b707fbf774d0501a2781a09c009011bc95d835b299180aad45c3b45",
        "l10n\/id.js": "456ddb0e13d2f3aa1829dbecb52cce2410d126ec49b6071040b7497a4fd16cbd387b5f4d5eee6ae8220d35daaa401ab06d8d9f877a8011cd121019a171a72063",
        "l10n\/id.json": "0803f27f833d5f2c3b2ef00d70197f8d615527dcc8db418e34b0abde565e3215a92e125043f395d4811e7c7bbc5d1bc523878ca477232c8b811578befb77e27f",
        "l10n\/is.js": "3b57e95f63c11ba5b77bbb98a2d657167234e067b28f214ad003d2a98c799d6993b5998c07a72232cd8649ecee2116e0981fa015ff5a44df3deae5a2533cd76d",
        "l10n\/is.json": "aa084db479d506b39ccb0f3ac5ca8b817fc90138aced98f029ee4ad7f6d5d3cd65ccc50803bcf187483eba87d0e011d85b5de2e137b40856616acfd8dd857bf7",
        "l10n\/it.js": "12015e72d71837189d9abe5480974d0751139f4cbfe636ee50e3e97b80018c6ac41f8bf9731142178033d8786e8a6980dc0c702dce7f4742457294d011787ca3",
        "l10n\/it.json": "4e43ec9a0402423760ca9967881e09a93df29612d950596bb3efc294dc0e3caa976c3b5aa6e939a5cc5340bcb5e024efb9c3c31fd46f4a2041c0daae610a88e6",
        "l10n\/ja.js": "e521b13bf0ddea77271231fe88a72d42a93b629cd08e96803cb0195cf37b09b4da148378ac6adb82bad76ed9aae4ae7569a0e2fb538abeba83b18a0e4ca1a274",
        "l10n\/ja.json": "9169d5ac6e17f59f0b82f6cb908dd276a5d39a56b733def2905d65cfa66efa0984024325335f3f2a255ceb0a6a88d9926b0dda28de04109b32187e71e75480e4",
        "l10n\/ka_GE.js": "d0b1160a83aa247a6af4be602fc079a93b9292378003574640872024606bb0c7134da64497cbb39cc686b92216ad5770822b736a6614981290a2c44dde5c02ed",
        "l10n\/ka_GE.json": "e93b78d2fdde8eae731fedc50f9adf648131f550f53996d78f90981235fd519995a408f733f48a3af9f1e0bb420a337a5278c6531563c271212764bf62bdb2ba",
        "l10n\/ko.js": "0e5625f658323152cece53cbf0f95caecb173838da40a5755324ff52ac8b605571404689845cd3e6365c1ebbf5a562baaf5fbcac67ee3e5809fb574842668c56",
        "l10n\/ko.json": "2a84d3b5c91d314679bfb6ed1263f8f78916895278986e5ccf6d962e221dd48181d8af1d627d493ba9310e83c9d2721b1c98618c963979c46990dae4e31de1ba",
        "l10n\/lt_LT.js": "e44732db5952f9471730d7fee067cd5e9356d1c611617deb0fe0148d788af03e252506690ae9c8ffaddd414630362a778710ad299a90fbbd266dd7333e7abbd6",
        "l10n\/lt_LT.json": "89ca793b8f59aa821085d35a6d2c5f3b91b6d3e0bdaace5c53ad93e02de4f20354b6ca05a36a57a4f9743e2d851366238c8d3496774b754104ff5a2ba6d82163",
        "l10n\/lv.js": "f0e8ef0b78051ba10253754ad7dc2f2b94c2728f71aa918b2791f1ea96d5ee6110430da614bc83f475512e783083e82d72b72b90a48625a495c4a1e2e50ff628",
        "l10n\/lv.json": "c00974515df6be54ec2ee2ddae23d8519129ea93fa989234db3e2b8bd6f7b91dfb43b45c2006c9905a1f80c6d735cb908b7816cc917fac80331dce06b4aeece4",
        "l10n\/mk.js": "066870f4dd42c8966cb4b72932c3b3dbed02c5f7120455e3f9673bb03a4726e4dfb4c896372ebd21b2fa98a01cfd5822ad2698d889dfe2a7b63db094f1e1f29b",
        "l10n\/mk.json": "055773b77e6dd2b70cccaca76dd68fca5c8895db64995babecf420b9bdc94efd462a06ee6ccbb1a51ea3ee4a0f5e2d1f10f3bf61a1337d8ac042ed67256fc868",
        "l10n\/ms_MY.js": "8ef54c08d103dfbad027595065f4aa88be8258f01abb3687789a8b93048d08186a6c4eb0b7e19c5eb7bfe2f889a9292668f92b66c5ca72e1a671fc75ff956bfb",
        "l10n\/ms_MY.json": "ca6e1eb228b2542e14238ce2352060c3126a4ddcce352f512e92ee27f08b5702d448f9401669824f5da2ef500a37dec69e3f8ab65bac81af3fda60e645f8d333",
        "l10n\/nb.js": "94a5ae4be664f1dcd8dec14ca1e88e55872e47a4d187e1e738d9266164f8bd9b27b588f1b412f1020bee7845ec44544d4c018924057426c40f6aebb72f2a87ee",
        "l10n\/nb.json": "a9054e7aa9ed112b55d384b405fd14cc36cbe330903057e3dbf17f2efaab1be1abae964c26aee2c24518f0fc0f3829e50a92c05809944c10a5000fe99711e584",
        "l10n\/nl.js": "d1827aa76fc28411179588e2df3e236003095cd062f306e1da799273faa92615e76161f41c5341acd6f7b097b7291e0e6896cb6997e22d4a81b2d1709dc3c03c",
        "l10n\/nl.json": "1eedcb165e7a6e74ed4e38b5aeb9b5dedba411bcb842dcb5363fec11566213ef8ff3c6244a42a854a936b3a523a66a1b64805f5ba4f04da47abf32f851fabc81",
        "l10n\/nn_NO.js": "245dc7ddf7e5c7afcf7569c7fc04dc45bf78e79bcc102dab89e69c5c4ac5b03f3b0d16f6f173a4d6c00f3eb7c0c5e4a64b066a250bb87e9da761a18efbed5a55",
        "l10n\/nn_NO.json": "7ce1deea9baf201ddc40a89db227afb9b88a13f7e9fe5f57be2752d19ce7dfa60d6f88d98722428d3b953d413e22733eff4818d69737db18ff1a280cfed94f3c",
        "l10n\/oc.js": "31094647bea8d45d6e3448277937602e7aafc6f0269eecf822232092ddf021ba4c7ae560236932894ccf20c0dcc040139ece80c9d58ad527dbed3e00eb30b473",
        "l10n\/oc.json": "786095fe237108505a4ccb0b717ba28c8ac847a5bdf29a85a3a75452461ed34ad39bf0b1537456037757b56f529274dc93b83bef1fe2e01087d4b2640bd7d0eb",
        "l10n\/pl.js": "4a415b006d00a9a9a2eac1fd2d9696ee4ede76f0de8fc66f59d2f6b07ad1906805301bc51c3d8611862209b34fa1bde66c299c555bb90707f51c94da92492ada",
        "l10n\/pl.json": "13cbb526ef6b638f051dde62cf0ed3bc2aebb7c68f86ad8f3e6901fe5dcf4e412ec287fe558703b44879483c5f0dc452c3db1af3cc3b2e7e32973c5e9ac5d7b8",
        "l10n\/pt_BR.js": "e1fc8829351092bf58a72544c4efa76d662db8712962fc6438237d50d884252858a73ff37985fbc20f76eaae4971d7ced3a102f72e207bed6f8b183bc0da4c8a",
        "l10n\/pt_BR.json": "83d8121cd7ba836d6588c629a7f7687d2c5a901f8758532d8c82b83b47b8ef36613961c51f8bc47004584702e69207421edf08a17f0ced668d7fd98d7d0c1364",
        "l10n\/pt_PT.js": "ea26be39dacd3414789691803e4726c661d03235e0bd385abeae08a2676098f3942cf7b5f1b7a0de1ac6c63b4ed333beebafce7c12ca41dddcb5281fe3ae4dbe",
        "l10n\/pt_PT.json": "ae160ae578734c2b219584fc2185751cc8efa1e470f5aa510b7e71cf2ae45d74addc2fef2183d7e02a4a3f02e4d89ee4008bd2ffbd67011dec4952e080f8e652",
        "l10n\/ro.js": "d1c772885a0fe7d41d2a65b52f4a7f2e61b691a902e67734528c8df16b7ed1cdf515186fd2e6e3982c6630797a89e0bbee92fcb2bab101b00adba40ae5f630a1",
        "l10n\/ro.json": "ddda7c40b36570499454027982691443826bcf0e206e160d34bdeb552ce697a4d00e6eddf3b2496feaa7775dd5428033a5ffd18bda846d0317002c0c6ba28585",
        "l10n\/ru.js": "6ba4664d3178ccf1745465f4649d11ce943f8e627580f3af1d6c96fba910b3d0d6dc6a8cec8134d9f48821b5aeb3c874dd92b1a38240f1682d4a4e22e5c69dd4",
        "l10n\/ru.json": "85f1397ddd0cd2f245994db6b4c62b28c3da5a74272a1df40d03f4aa0fcd38bc7c6a61583390ca76ecc9939715ee3ed2619349d8fc3d610d26e78bca760a7bb9",
        "l10n\/sc.js": "5e08a7603098d1dc72fa281368f952c9adfecd0351871b248ab208401760e053c6312feeea3e4b30f40eed145026987e91eefa119ed5753953c97bfcd57ece29",
        "l10n\/sc.json": "39873a8a3188466088fbdc1f866e2886c78a8ae55745397e486c20ebb0707ada691560337fbb1af463c86e5a6c85c5042ceb7403b8e7d57bc2d1eddf6a7bd774",
        "l10n\/sk.js": "1555c93a671971ab2b0e43a2acd4e237f9bb42f4c7a235d5ee6d79e684bcc3789b1de61d50a24cfbbeb44857e31579629216c20cefe01c6c5f2026644a409efa",
        "l10n\/sk.json": "309cc60869463a176ba0118397d57bebf2a2681583ffe064b7b5ee135fbe4807b7b8d00a674e566f8c55c1a0c2ed8aa3268a455336699f227705377822ab94a0",
        "l10n\/sl.js": "31eba194ba0730dcf0aecee445d9752cd3acb33bd6649639ba2af82373ee462764420dabac68a3dacf9f8a8d6685d888c515a1136600c37111a6ccac002547ec",
        "l10n\/sl.json": "0125d08d0b5b82a5906c34d1518ac737de26780081a5ab99a016e9d455b0412041808d15b84fd5b1cee57d87e6c15ec958e4a27b39d6626f09ca889ac1c5f0ac",
        "l10n\/sq.js": "977fc20578071b5507b59bff3b24ed2b947dbd616eb80aa0f65d7868c8dcefd6973a0f5190d13a3923fafd2b1acac9852c421215659dc56c0ec0906bfff5bb2a",
        "l10n\/sq.json": "0144b4a0521f17369999075003400feb0dac634ed402108b74e7d8c7d63bca83c070fa770442dd17a9182c8b8f0782037e2925bf00651fbc976a1710fc3b7efb",
        "l10n\/sr.js": "b895bb5adf1aa2fcaa1e9cb8f4f6d84bdfc4e9393e4c5ab96f69673e389218ac800cf4186b7f5f766cc43c233bdcb54fb4c7758d918cad83c2141111d590886b",
        "l10n\/sr.json": "70fe2b1bf89468420ea84fc1d8c719e67075158e656d55476eaad0d029184f6481575fc5da3d5028d902f306d7d8422977c74f4aa8601d9114d989b8d0d07c06",
        "l10n\/sr@latin.js": "f56f35192371bb98161abe5f7ac18c380363f67d6b24ada2893610ea8074aeb067c4f09135a5e74ad098f75eafb79408b09ea331cb47766a8418e0a9b392f869",
        "l10n\/sr@latin.json": "66fc96e2272db2b68b8a5b88633718ebeb73724f0755deb905203f85be733c3f7ce846441e56fe98139f2d20ebf94aa53639952e052a74440d33c77e7d6c1d9b",
        "l10n\/sv.js": "59c636fbedd23e053566e73c07cba71e0fcbfaf245c5de07241efeb62d0dacff20cb82803454946db2175e07bf788c886992b355e7143853028a88594d78ac76",
        "l10n\/sv.json": "27212fdb8464e064d3cef95ca136c2d88d36fb68c63fe0fda0546e66521c7773af704f0b037a9b7b181eeb868a8dc3a97025c3536c5b65fd6d391fe1cc329b30",
        "l10n\/th.js": "4783450af942789383123b463d80f196194fec92f456d3f39e1c4654292142a2065be9e309d3122e66b6b840536ea9c5414f3f228db83b07a9ab243bbdfc34db",
        "l10n\/th.json": "8ad5750f9b240a2a6d7e79abb2f1b48fd01e86fcea006bc84f8c3445711ddf3ae0dfb2c6e0307b37d908cfb1cf44488ef64af967ee9bd8725c62641689cc5c42",
        "l10n\/tr.js": "8eea0e746e0e2887dfce873620b35dfe0f5e82304057051423b32b26d6cc4109e4c49687a2eac5546c79aa0cc8799137676b78b4df6eb94e74297650bdb1d1e0",
        "l10n\/tr.json": "dde99be594e04978f65f0d06a0a6eb8a45bb18543791a8d50abeb1164e6267a010db99131e2e68416c01956591f3b702678fd55e4fef30f34be5060de29adc9d",
        "l10n\/uk.js": "34cf07ce2f0769cf9f2d0c3cdaab6722ad4d4a3ff47992130096bad35c68ad4c4ab2c981a1927cfc28b9ed65022e20afd74586a447f06c66a06805c53cd86632",
        "l10n\/uk.json": "5eff9103d18f885ba66c7b1d2b658ed50fbec5dfc9d8b018ce7db46498029960ef5ca8c7a97679d4fd55cdbcbf0b3b93c3018533e28314cf9881ecdaa7f387dd",
        "l10n\/vi.js": "542556a1933acfe4437dec49c2073d8066fdd97f2147a2352b970bf60b4ad7492b9229d16bc4f2bdd6b3a81aaa64400c7a3048f19bc9bd1269203a998c14a26b",
        "l10n\/vi.json": "3378f42ec5011b8fd03f135278a18a0820168e0bcfd6126817ea0a0a7410a6ad04109ce0fb271131d4effc3ca7131c8ffec20bcf362a9b7966ad5acad1a8a2ba",
        "l10n\/zh_CN.js": "f32bb6122cf65f39cdffc34a754ef2ee6c5edc8b032d6caa2ce6fab0b81b673546b6e7b5ba1fef9903643f295b7adeec1d7eb81db2a08196cf92906bb1724fa2",
        "l10n\/zh_CN.json": "e471d1bf0a9d6f62602234dc0a0f6357ee3e5baf14f4a7fe744b467560b678d0c5aa02a51966a5628a17ac21e234f915ef63c4579a0cec2c5dd9d66e05aa0594",
        "l10n\/zh_HK.js": "ea9bd19bdca2e556f37508b5941f4687a484622839483661d8236d442a1726ebeb0273c11404bce8d9aa09aa47f976fee4ac67300d484163e044343733bbd1bc",
        "l10n\/zh_HK.json": "25faf2c381c75989ba6fe2dbe043c2342e568f9fe7b405283e3f34480ffe9b71fc932960660e091dc90ab88758d009a6fd81b8ed45ddc611c17153e36cca8150",
        "l10n\/zh_TW.js": "e3c9d84f767c49c428e8b1e6c4a0d5c7ad8a3eebad0ebcc9fd53059bdd1a8fde7bae5c806b909cf70553a9ecc3d600c9c47417866277f78b3eae40e9271839ee",
        "l10n\/zh_TW.json": "8e982a6d1f961a10154dc23efa287f8b6ca48063e13763cf731e314175b2ae59c29702c5f7b66f2dfb6ccc1a67d51dd90dea46a2df390a06e176f0e479d7b712",
        "lib\/AccessibilityProvider.php": "e868fa1422083ecae5cf227f7e90dfa6b4faa34504a6ed1afc59cd64edf1bb04c766673916b7fce5adf2f57f7cb4fcb1513f2eb9586207851ceac9c3d42a3ba9",
        "lib\/AppInfo\/Application.php": "6e077704f52fdfcb9014f6c753a69e20be93a5317952bc9a6f37727a8b8eaa09b9b947c57a7bc7bd27a3286fbac89d04f9db87b6d12bf5c21b8f2477cc886def",
        "lib\/Controller\/AccessibilityController.php": "a22a6888ec629cd072ffd6ef6651f43a8ae46d8537681df382f1209b63a6de5206a4c884d4c3330bfb7d518913a532a0e5921d82453e5da940c66ff9621c1a75",
        "lib\/Controller\/ConfigController.php": "7049a0004b8fee2d64fdb9c5b8a6b9074cdf6ac418a509a30d9ed53681d8465445a3315227087d78b2c7322f8e195f9f467c8336ba66667f3b7c1ce4831b085a",
        "lib\/Migration\/RepairUserConfig.php": "d64548f7b9e115804c41195f5ce1c90b36bbca210787b3ef129ac95387aa300c16fc7af95dcdaab3782f1893522816b7bc856d5b9b2a21ffcdbc2f04239e2f7c",
        "lib\/Service\/JSDataService.php": "9a4c82a503523e827eda2b2f115be18bb39f2323a201d44cedfb5d2d506c532ad47bf49c9da53a3529437c9dec4bace2e93ca6b3a3d4b229c7b93dbd59500e2e",
        "lib\/Settings\/Personal.php": "17cf3c97424800ff97fa2c6fccae0a5d2093a3b986435b2e379a5d335176d01f874ea3bbf2ab5086f490b6e607a60fdad7a1604e374257afc8ce19417e71f6b4",
        "lib\/Settings\/PersonalSection.php": "4678225c8a14680e63fac6b88013a93d53cd5638ea90a5f9c8d786bac36c58bdfd6cb411a937394ae33f3c2d004a10419d3d7d3afdc7e45e6ac51a31b96cadde",
        "templates\/settings-personal.php": "d10cb33b9cfb3622512e4f3aa1484c30ab3405789dd2908ee68b0b240880565c03c7ce0cbb6dcf1d6daf528f519e84eca5ad2da60a43071fe422b14221be8446"
    },
    "signature": "nQpznN6KOk6sFBlrtrPiYrLpX6gbgqkWHPHZRR\/Uqb1IHjafUtz5GpCMe+6McjR8pLuU6Cc7OuS5q4b8kqfl+7MKmOnUUg+2vdt9fHVWMVzS2YU6b1Uk6KLngCSV+LhXIyMUf5KUeCoJHJnv6eB1xJFdIrIkkPfihH7FsgaEdPT2QdRn4QEOfjWV73IbeLRvBGjRlrsP4POlnr4ILN+NUgiEP3DzB0ZtJ1i0NkKUjKrDhjb1r\/lpPDce\/Y4iJwP7A3cboYRByaMTl01NP0SNukbVXOTzuOQW8vblZSNlEO0BTA6gwXskCGoWAoxOhnzkeBLl8bm\/3KjRh4K2x8+AxQ==",
    "certificate": "-----BEGIN CERTIFICATE-----\r\nMIIEojCCA4qgAwIBAgICEAAwDQYJKoZIhvcNAQELBQAwezELMAkGA1UEBhMCREUx\r\nGzAZBgNVBAgMEkJhZGVuLVd1ZXJ0dGVtYmVyZzEXMBUGA1UECgwOTmV4dGNsb3Vk\r\nIEdtYkgxNjA0BgNVBAMMLU5leHRjbG91ZCBDb2RlIFNpZ25pbmcgSW50ZXJtZWRp\r\nYXRlIEF1dGhvcml0eTAeFw0xNjA2MTIyMTA1MDZaFw00MTA2MDYyMTA1MDZaMGYx\r\nCzAJBgNVBAYTAkRFMRswGQYDVQQIDBJCYWRlbi1XdWVydHRlbWJlcmcxEjAQBgNV\r\nBAcMCVN0dXR0Z2FydDEXMBUGA1UECgwOTmV4dGNsb3VkIEdtYkgxDTALBgNVBAMM\r\nBGNvcmUwggEiMA0GCSqGSIb3DQEBAQUAA4IBDwAwggEKAoIBAQDUxcrn2DC892IX\r\n8+dJjZVh9YeHF65n2ha886oeAizOuHBdWBfzqt+GoUYTOjqZF93HZMcwy0P+xyCf\r\nQqak5Ke9dybN06RXUuGP45k9UYBp03qzlUzCDalrkj+Jd30LqcSC1sjRTsfuhc+u\r\nvH1IBuBnf7SMUJUcoEffbmmpAPlEcLHxlUGlGnz0q1e8UFzjbEFj3JucMO4ys35F\r\nqZS4dhvCngQhRW3DaMlQLXEUL9k3kFV+BzlkPzVZEtSmk4HJujFCnZj1vMcjQBg\/\r\nBqq1HCmUB6tulnGcxUzt\/Z\/oSIgnuGyENeke077W3EyryINL7EIyD4Xp7sxLizTM\r\nFCFCjjH1AgMBAAGjggFDMIIBPzAJBgNVHRMEAjAAMBEGCWCGSAGG+EIBAQQEAwIG\r\nQDAzBglghkgBhvhCAQ0EJhYkT3BlblNTTCBHZW5lcmF0ZWQgU2VydmVyIENlcnRp\r\nZmljYXRlMB0GA1UdDgQWBBQwc1H9AL8pRlW2e5SLCfPPqtqc0DCBpQYDVR0jBIGd\r\nMIGagBRt6m6qqTcsPIktFz79Ru7DnnjtdKF+pHwwejELMAkGA1UEBhMCREUxGzAZ\r\nBgNVBAgMEkJhZGVuLVd1ZXJ0dGVtYmVyZzESMBAGA1UEBwwJU3R1dHRnYXJ0MRcw\r\nFQYDVQQKDA5OZXh0Y2xvdWQgR21iSDEhMB8GA1UEAwwYTmV4dGNsb3VkIFJvb3Qg\r\nQXV0aG9yaXR5ggIQADAOBgNVHQ8BAf8EBAMCBaAwEwYDVR0lBAwwCgYIKwYBBQUH\r\nAwEwDQYJKoZIhvcNAQELBQADggEBADZ6+HV\/+0NEH3nahTBFxO6nKyR\/VWigACH0\r\nnaV0ecTcoQwDjKDNNFr+4S1WlHdwITlnNabC7v9rZ\/6QvbkrOTuO9fOR6azp1EwW\r\n2pixWqj0Sb9\/dSIVRpSq+jpBE6JAiX44dSR7zoBxRB8DgVO2Afy0s80xEpr5JAzb\r\nNYuPS7M5UHdAv2dr16fDcDIvn+vk92KpNh1NTeZFjBbRVQ9DXrgkRGW34TK8uSLI\r\nYG6jnfJ6eJgTaO431ywWPXNg1mUMaT\/+QBOgB299QVCKQU+lcZWptQt+RdsJUm46\r\nNY\/nARy4Oi4uOe88SuWITj9KhrFmEvrUlgM8FvoXA1ldrR7KiEg=\r\n-----END CERTIFICATE-----"
}