{
    "hashes": {
        "appinfo\/info.xml": "c27e6cc0ebefe368691521fec2dbbc53bee2d4ac57e1e0074440b10e9244a48a5cc3336f7a4c97b38f176701a1ece48ca26cf1a593a7a2571c86751f4b5bd193",
        "appinfo\/routes.php": "e849f9140c73f2580730613e632828b601f3053d99d5c95851f015d1c212f7ce64f35b1389dcf465d5c35ab48776f14c94125bcc33c899ce9db03f3de5114fe1",
        "composer\/autoload.php": "64207eb8d5b73289a870602940a474f0142d6bfbf796f9cbc789ff22d967c7aece94923ac8855b5cc8c30516174e936a9240c98fab849580eb67c86506e4a5ce",
        "composer\/composer.json": "5b078de0e28d9c7a73f23c9fa69fa526b62961cf5e5b05cfc8f56ec08844d11c88740378fb0c3f58755dccac20c9c59fc7df58310076caf6fbbd3d12aa6dc243",
        "composer\/composer\/ClassLoader.php": "2b6fa585122ace1ba816410acbd8372cb75329917aae6363dbad48e396cca581452616e1386a2e445a8fbb0e461b988279103f4f89adf704bce7726f761abf0e",
        "composer\/composer\/LICENSE": "f3bb64009f41a425df5a9bbab53490f0eb9b74fa8d6aaa2f57efb928edc4ffff330260666edeaa04a91fed708c3663371cf01b284f3a08d6698aaef7a23f355a",
        "composer\/composer\/autoload_classmap.php": "bf0658e32807c66e48070603c574d097bc894fd4c95a4c729b60ee90efaf7e3bc62a1385aaea5a98ead0aa8982fc7f084243d424cac82e5d5848e540b2c55ccd",
        "composer\/composer\/autoload_namespaces.php": "dd8ee31d2faa9014fe567e1f954b5e7f450cf06feacbb96d4df663c59b1a36a0b7d26ad41b46354bd14f282fa7899298137208d1851099cd3ada285650efd90f",
        "composer\/composer\/autoload_psr4.php": "45e84fc68c4ec7470d453c14526ce52d96b2e6abb1a6655e9945d5f630a41b2db067efd838ec8cb81ffe861a436f9a21c5450a81df2f5363e5177d43f2955330",
        "composer\/composer\/autoload_real.php": "53842c932242ef11197b2161578b39f700543969f2ab0a728009c68c9f9fce9fdad1f69535184ec05c6804a3692ea87d27d84e938cd0fe0bd7cbc61d551b58db",
        "composer\/composer\/autoload_static.php": "9668463c273fef494287dd151960ed50222cd3056e3584201d03027acb2e1e2f3304ab151e096d2d6ebb59a2821b22669131a726d2b9e46fad34da196eb41fb3",
        "css\/settings.css": "059a45d8b1518f653e8e53fa8c8fed90a82ffd2c131fda06fdf67f2acb40832449c4a8c3098f73d4df15bfac368aca6e26c94eb802f6860521acb45835a3b035",
        "img\/app.svg": "9a0152975476f3f17aa0bb82a8ec538ba9254325db06cf041628b3fc2a74d80232836b425c7a9a324bb7fa361fc72f3bc84a639de756bc99dca8fce7cb15fc35",
        "js\/admin.js": "2748ac016e49785423c65f5972c3aab3023dae9ab30e4e55bd35001dff747dce82865f3c6915a05226a9498544946b47860228526aa873d2e37b3692cd9f8dc2",
        "js\/systemtags.js": "46ffc0bb39817d48ce28d54f700341b65c5869b424c79d5889fe1c9cdca8ca0084411707cd09f06f1b202b7f81ed19d9ed4ca089d9cd694268ce46006f46235f",
        "js\/systemtags.js.map": "5ecc29adc4e45f0f882bb79bdea619a060b452f9e2aab078f058c4fbf9949f75cebbc06b709469183b66adcc69374ca2fc70606a052d30c4cfd94d9d00195e63",
        "l10n\/ar.js": "d7f5703931b0d01aedf81311b31abce8633fb8d32521ef4bc07c79b7a6a77ebc4ae181b61790fe97b2d76bf86821d519a434a28e7e6b21f52a956a36f4271fe7",
        "l10n\/ar.json": "4b22ca0d16dff2bda7e8f076dc8adac495fca36a348aedf1697b6f007b83d981c2d70a91bcacbb850303040256534a5e52888e304b2ed1443d937d7c25a07f1d",
        "l10n\/ast.js": "1caa4b55a5382b768b863422a8bcff4c4b335e815fb472d3e7ecd3ba72385e33ab6272eb6ec283bb28f615fa270bf4b9e1576212cccaa00ae4ff900c5a8a700d",
        "l10n\/ast.json": "df622f1f948f0c8c08f346662bd4795593af500bef75d7dfceaa3cc2cf1f1d26c4939509f62cd8df8d0b69dea5c5a46d9866bd15baecf588d3b9c9f1bd860272",
        "l10n\/az.js": "c1fe9760848e86bbbf303be6af82e5f9f7d7f4208107aac1bce01262ec054c21f8cabb3af78b84db07f9cd679fe7ca70e7ca7ac818f5b9415e6b241c86e76cfe",
        "l10n\/az.json": "b52cf9c5b2a1edec0dfcd5c29c69180cf867c8a276a84d561cda8c8e3bc9edfdd7ec65fe23bdb8ec644a7a0e7fe8ac6dc115f03bccd6cbd0d7214ddee78730af",
        "l10n\/bg.js": "6f72a311916e3163e908206f958d203d5c116694f3aebe36699ef7de3c71546dd19499db93e1dc69c3af4f25cf60a1cec851926a8708777e6d2da2c2b2207660",
        "l10n\/bg.json": "b020bea2b807a38c7be4de42a3348219cc61d8bc2fd70298a22ad6d0e350873d7fcb2c350352977631a0b486a27d0bbabe9badd30a4fc0d6e7c3a923f7409449",
        "l10n\/bg_BG.js": "a321f8ecd73adcd4d4dacafee5cf5e950da499bd03e15f5c4648a6c9ff3cf4b7b1abcc709916b06dd9e2cdfdda9c2014dd45c29d2397df2973450b7cf9ca1f91",
        "l10n\/bg_BG.json": "829ed412ae8ee1b5da11d2af3b86e1fb7ab52e282c826b8bff82e51e191ca61cb7ce8a4df3c869377354e08d638fae5efe17e735984cce7b6a3a1c980c0d9de7",
        "l10n\/bn_BD.js": "646adf9b558187f1532978023587dd98db5d477d2a3b63c20fde82fd896ec9ea9e391878ad5f991a9f2bb9ca2eeeaf210e062d28b559475489a92677d03c854b",
        "l10n\/bn_BD.json": "959e9c167651b261534c72a55f41365144b5754ee566851f7421ece1806c39b2c6723d8973d9b42d8c66ffb50dca680852dc797885fc26e425be0f1d370ee26d",
        "l10n\/bn_IN.js": "50d3cc1379bb8c6292d8203920717811cd42584e6e1cc635e5061e2b0b9560ab0270ef13de532a134a47c5c44e9eaefb4a17a55aad88c95ceedd03485688392c",
        "l10n\/bn_IN.json": "7daa0bc9856418d6e707ecf55645cc2c07d2f330726a00c031538259683abc91d53b61c01158c2080e3b9d7731bee87efd5f77d00fba766c495e2c418692d4a6",
        "l10n\/bs.js": "0add3fbb9b96b3b20fb754f27d94b3f85eb5a41d68563cd7a23a6ae7f95ab8d550a9a5a3d5733932366cccbaf843b25b1b0d81cef378301afcc400aec0ebc86b",
        "l10n\/bs.json": "802d1f2b1c9e24f2c2dc0a5466132367b5609e61f0aa74595769ba32354d4fcbd4eb093b81d6ffdc8f3f6edfd34f8a553962efee9d935c6003884eb50222cfb6",
        "l10n\/ca.js": "c2f6fe57249fc9e4e3af01b72b6b85a3535598f24aa798a52b51ff8ab16bc4ee28e282782d90c3e70a3bdc8213af4182c26d263169abe846f8052291c14f61f4",
        "l10n\/ca.json": "244fbbd7fce613c50673aa81c33932508d591c2bb4420ac3b7d0bb22adb5701fec85d62cea277ff0abfc068cfc442b459fb236d38171f64ba231d68151d1b763",
        "l10n\/cs.js": "116cf753b9ac3c3cf11069e1e93fecd3c029494d3f90474768e876fb282ed2415908816169533d329a57c1a9327adbe1a24d63ca021c3d796d30dd6a15a3686e",
        "l10n\/cs.json": "8a6caa534221d2318b536c3ae0c55bf67e119e06cd5f9730e6361d82f756b10114feb4256401c38a5580a410bbecaa400180f578e6c1543709b6c4e70383cb5e",
        "l10n\/cs_CZ.js": "d6316057670bdab44e5d22e34e9ac6c1f435efc9fe3b82efc3f8955237af9035c96f972887fac820fce4166cc1d9e4a75440581bf63348149f290c83efd2522a",
        "l10n\/cs_CZ.json": "e3d2c247953d386f8a2286feabdf1d384da05a6380ddf74738820b12b29e45efd418098a008cf41cf2993bc303fd645e196da5b5b1d05fc162b53575ed1de021",
        "l10n\/cy_GB.js": "c6c5fe82ca8a7e43f04cdca44d423187533c0b17d8182c8ae24a90d3ea0566e370641e4c8910386762ce0e55adac552c03ee916dba364b047d772e5be72517a3",
        "l10n\/cy_GB.json": "0477b3556a9f4a524c04b8d9043faf421194104a2702d5dbddd8927d7c389ec816adeffa6061365bfe8fadca79b202b025cef4207773878c911e6afae8570320",
        "l10n\/da.js": "b921d0c88019124b3be44cf8997d7a76646a71b4d444ccd07f7669cda9915781d8791481c209559d9faca000c38a74c4f5903f7abff8745c22b98c9468d3ad7b",
        "l10n\/da.json": "88dccc8851568996a3cdaed6f5e3033cdb3c42d35fb1b40995e4f7ee803a4f5e3c42a28f0b462844aa9af7a348b71c71f6fbfdf7fb55e101ff58d74088bc9449",
        "l10n\/de.js": "a1ca07b05f2c3a2049c4e61ae8606917bbe4eff0a86974ffc91e2b053a554064e256e0094b17106d90c762948b9c694569adfd87c1ed13eaa503848f9b05f407",
        "l10n\/de.json": "25fa443e9aa718f4024a5348305c4cf42208ab4bc1fa9542ea245346867716f1a34e441c1207d7da3d214787da896774d34b4ed08a031472ba6c083545957a63",
        "l10n\/de_AT.js": "d8f8d68efe94c2cda8c9c044741eee757f962f0e69fad628857a5b683513f4c2759bf0d0e109d94a900ec3a6f8c8fc5a23a4ca1aaca3d36fe26bfb6fc25fdc19",
        "l10n\/de_AT.json": "12707fb693269b13c279a41d4cc32691a56b68a18ed730f219abd3f53a5cb8b2070492eb635567394ccaebc4e0f16f08fb774f1d4632bc298fb6f0eb35d2fd5f",
        "l10n\/de_DE.js": "31502b8abd96dfc296c00efd266bcff97bfb9b855ad0444b284a7118b5d89742d214daa8b66b5f8cb2f4354b268341aa24696312444c11e024c892b56864cd27",
        "l10n\/de_DE.json": "79acfb421667f2dec94a0bf5d1e60d6fa5600b9d7c57b00159f6fb3bf496d3d49105938f7a8b082c64b2d6549b5f93522e22e13a44480e46f0b6484e330233f9",
        "l10n\/el.js": "54f4b1608e75732163d88dea53d2ff6530453b9bdee21643429636fdfcc6764a2bc3f4ee1ce0333a3f817f3c33053a24195b887933a070571f8428772f29ce02",
        "l10n\/el.json": "1d42247bc582f72c8897e0cf03ef1a5935b5a633370f0c96a356d559b7491d3ea6ab4125d273aea35a757d9123c4a2449c1309af924869221d1c2bcd41ad9664",
        "l10n\/en_GB.js": "abe0b46ab78a1e3b3461c1070988054000def0027a21476d7686847ab0474239152396471eaefcb1dd330c0587e08ff0b343132f0b88e1dd2210f660bb083286",
        "l10n\/en_GB.json": "1ad9e66fa5ece38114a97d11595986413edec8ada08ab25f717c1bb4b19070ccfb851d59fe83e4f620650173bf56fda015841debdb94abb5a8365f927a8aa8f8",
        "l10n\/eo.js": "a0a2adaedc45a6d681a9df7fe3c890a44efa2757e2bd9cab7548210313440cbdaece95a2b6ed3b5eb08ae7e51247991e4ce666bec772ec4b0c16ba36c4f78ef8",
        "l10n\/eo.json": "c872b31b13fcb19f1c4943241f29868ce896cd824aa54e59330ae5301d979d5b6d8b9b832fbf85ab4cce12dfa8e1e81f46efb324e37bf81f383c0d159f103745",
        "l10n\/es.js": "b464393a6c363f43afb1fbb92ca69a2cc38311a7f8225b9f9166fb37e6a92b5eb6091486f218867e2e0b1bbaa3f4f56e2dae8d2e64e83f572767d586c09f4ff3",
        "l10n\/es.json": "c6554d7c3f6411aa88713811538f5a77a005a2887fabf926a6e526ec72712216eec8a299ff33e7e64bee72692e56e3a5dfa26d84f846463769fc63ba78d124a4",
        "l10n\/es_419.js": "65f1bb9075e485b048146765e71ea735a2122a85dec49c585f22a2926f323876b2190c7a0ac460b500185f582da9342e453017b43930aa150da6cc13c060f607",
        "l10n\/es_419.json": "1091bbfecd49f01cf404cf22fe6acb82e0cf35e086f485ffcc844d9d8ec4b385a7bd25399c99b20dbfd74240da05c518f1512f5521c9979af6f170df30d6e5ce",
        "l10n\/es_AR.js": "4cfeb9b167442449a047b7dad372455f3af9b7c7538f3adff6062caaf1e225855be546759547ed2ccac85a40a7fbac298232d2f4441aa5e57b58a9af3f0ceb6e",
        "l10n\/es_AR.json": "e1baa0bdd8a78db09887a325ae407b33196642253a492d77c3c72c83c55b4d2dd3f1a67cbec010f1aa03c4bea84fa0095a6b60e49e2b718f4ef6f9ec064c31b4",
        "l10n\/es_CL.js": "65f1bb9075e485b048146765e71ea735a2122a85dec49c585f22a2926f323876b2190c7a0ac460b500185f582da9342e453017b43930aa150da6cc13c060f607",
        "l10n\/es_CL.json": "1091bbfecd49f01cf404cf22fe6acb82e0cf35e086f485ffcc844d9d8ec4b385a7bd25399c99b20dbfd74240da05c518f1512f5521c9979af6f170df30d6e5ce",
        "l10n\/es_CO.js": "65f1bb9075e485b048146765e71ea735a2122a85dec49c585f22a2926f323876b2190c7a0ac460b500185f582da9342e453017b43930aa150da6cc13c060f607",
        "l10n\/es_CO.json": "1091bbfecd49f01cf404cf22fe6acb82e0cf35e086f485ffcc844d9d8ec4b385a7bd25399c99b20dbfd74240da05c518f1512f5521c9979af6f170df30d6e5ce",
        "l10n\/es_CR.js": "65f1bb9075e485b048146765e71ea735a2122a85dec49c585f22a2926f323876b2190c7a0ac460b500185f582da9342e453017b43930aa150da6cc13c060f607",
        "l10n\/es_CR.json": "1091bbfecd49f01cf404cf22fe6acb82e0cf35e086f485ffcc844d9d8ec4b385a7bd25399c99b20dbfd74240da05c518f1512f5521c9979af6f170df30d6e5ce",
        "l10n\/es_DO.js": "65f1bb9075e485b048146765e71ea735a2122a85dec49c585f22a2926f323876b2190c7a0ac460b500185f582da9342e453017b43930aa150da6cc13c060f607",
        "l10n\/es_DO.json": "1091bbfecd49f01cf404cf22fe6acb82e0cf35e086f485ffcc844d9d8ec4b385a7bd25399c99b20dbfd74240da05c518f1512f5521c9979af6f170df30d6e5ce",
        "l10n\/es_EC.js": "65f1bb9075e485b048146765e71ea735a2122a85dec49c585f22a2926f323876b2190c7a0ac460b500185f582da9342e453017b43930aa150da6cc13c060f607",
        "l10n\/es_EC.json": "1091bbfecd49f01cf404cf22fe6acb82e0cf35e086f485ffcc844d9d8ec4b385a7bd25399c99b20dbfd74240da05c518f1512f5521c9979af6f170df30d6e5ce",
        "l10n\/es_GT.js": "65f1bb9075e485b048146765e71ea735a2122a85dec49c585f22a2926f323876b2190c7a0ac460b500185f582da9342e453017b43930aa150da6cc13c060f607",
        "l10n\/es_GT.json": "1091bbfecd49f01cf404cf22fe6acb82e0cf35e086f485ffcc844d9d8ec4b385a7bd25399c99b20dbfd74240da05c518f1512f5521c9979af6f170df30d6e5ce",
        "l10n\/es_HN.js": "65f1bb9075e485b048146765e71ea735a2122a85dec49c585f22a2926f323876b2190c7a0ac460b500185f582da9342e453017b43930aa150da6cc13c060f607",
        "l10n\/es_HN.json": "1091bbfecd49f01cf404cf22fe6acb82e0cf35e086f485ffcc844d9d8ec4b385a7bd25399c99b20dbfd74240da05c518f1512f5521c9979af6f170df30d6e5ce",
        "l10n\/es_MX.js": "5eba05f466f4acd35c082fed75a1f76fe68dd18fd3e665d43b52366f5cbb114d3e8817c1c3828e27dd182da92a980f26a2a3a0875c2e38bfd31b32b036fe6ef4",
        "l10n\/es_MX.json": "5c7de9fedcd34fbdabac6a8595c889de86932d724fb46db954a689b8225fb101d7114353e9802ab906dbffa1e5d67223305c01a54f17ce0eb8e2bc0f1f822bc3",
        "l10n\/es_NI.js": "65f1bb9075e485b048146765e71ea735a2122a85dec49c585f22a2926f323876b2190c7a0ac460b500185f582da9342e453017b43930aa150da6cc13c060f607",
        "l10n\/es_NI.json": "1091bbfecd49f01cf404cf22fe6acb82e0cf35e086f485ffcc844d9d8ec4b385a7bd25399c99b20dbfd74240da05c518f1512f5521c9979af6f170df30d6e5ce",
        "l10n\/es_PA.js": "65f1bb9075e485b048146765e71ea735a2122a85dec49c585f22a2926f323876b2190c7a0ac460b500185f582da9342e453017b43930aa150da6cc13c060f607",
        "l10n\/es_PA.json": "1091bbfecd49f01cf404cf22fe6acb82e0cf35e086f485ffcc844d9d8ec4b385a7bd25399c99b20dbfd74240da05c518f1512f5521c9979af6f170df30d6e5ce",
        "l10n\/es_PE.js": "65f1bb9075e485b048146765e71ea735a2122a85dec49c585f22a2926f323876b2190c7a0ac460b500185f582da9342e453017b43930aa150da6cc13c060f607",
        "l10n\/es_PE.json": "1091bbfecd49f01cf404cf22fe6acb82e0cf35e086f485ffcc844d9d8ec4b385a7bd25399c99b20dbfd74240da05c518f1512f5521c9979af6f170df30d6e5ce",
        "l10n\/es_PR.js": "65f1bb9075e485b048146765e71ea735a2122a85dec49c585f22a2926f323876b2190c7a0ac460b500185f582da9342e453017b43930aa150da6cc13c060f607",
        "l10n\/es_PR.json": "1091bbfecd49f01cf404cf22fe6acb82e0cf35e086f485ffcc844d9d8ec4b385a7bd25399c99b20dbfd74240da05c518f1512f5521c9979af6f170df30d6e5ce",
        "l10n\/es_PY.js": "65f1bb9075e485b048146765e71ea735a2122a85dec49c585f22a2926f323876b2190c7a0ac460b500185f582da9342e453017b43930aa150da6cc13c060f607",
        "l10n\/es_PY.json": "1091bbfecd49f01cf404cf22fe6acb82e0cf35e086f485ffcc844d9d8ec4b385a7bd25399c99b20dbfd74240da05c518f1512f5521c9979af6f170df30d6e5ce",
        "l10n\/es_SV.js": "65f1bb9075e485b048146765e71ea735a2122a85dec49c585f22a2926f323876b2190c7a0ac460b500185f582da9342e453017b43930aa150da6cc13c060f607",
        "l10n\/es_SV.json": "1091bbfecd49f01cf404cf22fe6acb82e0cf35e086f485ffcc844d9d8ec4b385a7bd25399c99b20dbfd74240da05c518f1512f5521c9979af6f170df30d6e5ce",
        "l10n\/es_UY.js": "65f1bb9075e485b048146765e71ea735a2122a85dec49c585f22a2926f323876b2190c7a0ac460b500185f582da9342e453017b43930aa150da6cc13c060f607",
        "l10n\/es_UY.json": "1091bbfecd49f01cf404cf22fe6acb82e0cf35e086f485ffcc844d9d8ec4b385a7bd25399c99b20dbfd74240da05c518f1512f5521c9979af6f170df30d6e5ce",
        "l10n\/et_EE.js": "d5161ba10757d57deedbc77fe99797bf804bdd38e6201eb7a720938082ce624790613895526f002c0d4a1f4ce3b8771203757d53d84c7775b6a7ef54923ffca8",
        "l10n\/et_EE.json": "3982f986ef8dde37acdf1418d64a1b95354d13e257ceda8820656785c4a18d4fb7080288f37538cd2ef11320acc87aba6b50dd19a887a7b6ee6a77474419f406",
        "l10n\/eu.js": "a07226344c013db01cfd1d68b25a112599e2a94dfa8673f6b01bf79b8ead817ae53b096f58a32abeb184c4b1ad970173b0c50008c54fd9bc08718e005473a690",
        "l10n\/eu.json": "fb3a004e1f266647ffa1a51f7e59bbac301af1f49cec40b6fd6aa4c52230f16113b9d6d809ba93bac06c1cdb0753182ba49c4de862f229ccccb7fd4af3046b95",
        "l10n\/fa.js": "3a2529132cd2e0c5015e5df1993d9d8d520c704b961e5cfc293b1590c496cab5c406c60a47c23c7ecd64c733fef063c86c1666da13c98b9e9e0ab2c95d4a50b9",
        "l10n\/fa.json": "5a4e9417040871f736a79568c05bab8f9d67133b8bc3bba823028ff65b4a5ca57375152e8ed51bc33838cf23de1089c0d35b31ac527b3662125a3d924bd65689",
        "l10n\/fi.js": "450cdb99cfb986ffea2dc0bbcfe0f30cafe2d23d0ff9e57bd73dcfdc3c246ff96599bb4e88931010a2281c8dba9486eb31b8afdcb40a5df8c477faf2cebf2b48",
        "l10n\/fi.json": "858f47cbe9a4a1a3c326e1305c217046ebb80fe419c831d8775e54320f9d141f03db0a91f2e126702c09e254dab8b0598ae2425570317c032e2cdcb788a455e7",
        "l10n\/fi_FI.js": "8bf5be3110691cf63bece65607bbfed44b289875f6848c84fdb40019d6a65c3a556d79cd77ff16b6429d31ae99bb8cda7b87d43c63df32b7904e94ae63da1fe1",
        "l10n\/fi_FI.json": "8c6f7dc2a175acb5410742e3f666ac6490c4a9dedcbade4503a16dd69dde61e11698a832df447651bafe77c0eb1ef1905c3d077db438fb1e1cc3402e1511c83b",
        "l10n\/fr.js": "8a226189bbfb138392393d1b67311864e1398783caa12242085e1219799247fb4932bd6e7439fbff40ffc33dc0b0a682ef04a36dbb559c4415c356e94924f064",
        "l10n\/fr.json": "361ae14a7925a25dcd3d869e4804b340e2ed9a132a2252675139047e9cca2d6a8a72d8bb0c9687d53872e67963c720d9c6f4bd3c51769e4a0d64163f8a861b7f",
        "l10n\/gl.js": "694b62af5d334b33b5ca2fafd0389d81e0db666243b121550f2a93057ca3137ae9c0a8e6f82990427b50ca553060f7916a688eeded05e9e1ea26c876b1239076",
        "l10n\/gl.json": "cfb0c04727db56187d53cf57c1c9aa5f386915163c89de5ed62029ccfa806c9b61625c900a9f2cfa74c0933fa1be89b8a5f4473f5000c213c398a8b29c1cdb14",
        "l10n\/he.js": "e689f5e990ad17095411c408ebb036a68498f9ff33086b2049efce5249ef6b9dcea383495700086fd7f5dc7322b34988174fc736c17714c30ab853f1da297f73",
        "l10n\/he.json": "1f31b19c0d4ec37f7c58b9641e56caea58a3dac361f319fe762c17a05cf4b36448a429e0ef228e85048e9478d3352ca5097de6f0b0b9cf78146c94d4833d102d",
        "l10n\/hr.js": "50cf9b5d4ff6b79cb5e03d516fe4601e843d4a54052356f05b7ff469b16d0a22ff65cadfd973875136088f0cbf919ed1444e56c4709e088243cf07762283d4a3",
        "l10n\/hr.json": "72ef0cdd9571fc500d83c22b6389792dae3dc905a8ab948de3bcf15f67f0bcc51b93738c9e0e49e863f99be83b930855be42018d93bb811ca4e47965138a1f46",
        "l10n\/hu.js": "66bb44e8fc950589f38c11e01ffa3271079b138fb299649ee262f5eb4d9f672b863fe1eea571ee117286ac06d928418cf03b8cb27feec43a8c934fc05c542791",
        "l10n\/hu.json": "4b3eae7d16424938b7237090d08385cb9541aaa20a9dcb36d9a2d9c472a1bf62dab1415ea97199c987cb10a89914315776ac2a21c45ad137c3c09e775bf7a3f5",
        "l10n\/hu_HU.js": "7409e609c8666be29892b143d5a556aee4f23fe25ad0b3357295b30cf1fbe99a2ebf0f666dbcad475f3d626d441c3ac78db0907f8b0f0d18b7449a19e9916dc1",
        "l10n\/hu_HU.json": "c20fae8a10dc9db7d746f419432713f29680b8c90446c661fd643b9c0e76cba90daca59c11db20b2477a01c114236baed572f64fd4970a909c225a012eeaec84",
        "l10n\/hy.js": "b4ebd09df8fd42dae0c112ec3950b7d3dd29f33d47b2803b83a75fbb1f7ba486d10563e719c55dc625b8b9dbbdfc8a4f25cf0b2963860051150a10074732a210",
        "l10n\/hy.json": "aac4ea40d025a3dd1c121aaa1e2b301e0b40fee61d9adee395bb469653997f7a3ef90ec53d0fde92daef9dede2f8e44bd7c973fd6945f79a534857d32e623059",
        "l10n\/ia.js": "60d1ad358ddfda6053f210f3c92851d543b7270c4057df913105925234c81930d2f58e41bd3d00f048deb2f576ce3952b315ae2972a292b770e4e27d5be14ea7",
        "l10n\/ia.json": "c4928d618fdb83ead27be6f9dd9a5447a5b826223b8ca601bef42908d152ccfd9dcd25265dd3052a9755b94e1882187131bce2d88d54169ed88a56ee511d5596",
        "l10n\/id.js": "fafa2f2b33bc7a7edf6d5579bceb9c9a611abb8c3413575aff72fb228d77bb71b00704e98bbe106abe1bfa2573766ecfc717ebd57cb7fa984db2d05efff073c9",
        "l10n\/id.json": "43cb465190e5b9fa30ffd85994cffcc2f713c775e49cf3ddc5d3525f9ae9d5d9ac4a83cf53c41eeb386e968c0cd9ef573c1f37e635d74f711861455f74b16c81",
        "l10n\/is.js": "6fb99d5074bf04847b05b1a4f4b9ea34e200fccaed2e34f9766f65f98418e89f472d14062a47feec8b5d72c52c76bc8ed62cfc004821d5bd110bb61edc626dbd",
        "l10n\/is.json": "e3f8fd12515d5ea2efb91dfd354ea3d73160aea4f6a40d2ace719bd5414bdd5d61c61fab93e196795185010a6e02af6703973729e90732908035c5eb31d6bb60",
        "l10n\/it.js": "7a8747a95f0cfc3a343c2fec41cf3fa152118830c6d3d6ade84dc2efa13cb07a5e15b0a5425f1b6eb02107e6d22db86983142ee7c5f78f2a4f6c0741f498a004",
        "l10n\/it.json": "dcc5e4575a89a8da4174ab6ba20f0768733469bdf4c3f6fb2fa54c7579c5c8cbf412780f52e8d5e303bd87a647741a03a8282cab814bb063f08d24d83a8ebf00",
        "l10n\/ja.js": "ccd89e9548abc26512a705d6b6f8b159084a9be79489db08931ac4992ba7e0dd60e7e129f9b53818144351de2ac1809f22f98128a78728a72aa56aa99665684d",
        "l10n\/ja.json": "a48682f93483f68bb148244cccca398835b1386eaf86a396addb782ac16817d3ab421bacb8abc7e0ce7e92c2424f90f0093d8344557c0afc985f33356ef3bb66",
        "l10n\/ka_GE.js": "d355234c8302bf2337a1b4793b4f6bc5765193e40e5090ba765b0577be3d6d5831567adb9f42da107c4a4f1fcf52cf2c174f1adc7f922a8a2679d8f774b7386c",
        "l10n\/ka_GE.json": "04e3ea799be6c6f9cb2fb6f903df41933f7d4c054a17c06f6c474bddf2364ce9a03e51dde9051012f795a11c8aa105b6eb9f06bf43d4447abb336e651f99ba96",
        "l10n\/km.js": "f0a2d54b87cf644af576e1f58558536fe4007442156b879247245d5465800014d611dd12c0b5a4c61c173bb8b8eb168fa5a138418a18d1e2b28dd7ba7c7fdada",
        "l10n\/km.json": "8e7e2140f61d5865c413dff4d211070bd7e6c20d9b9243e86b2a4c2e11b4f3961cc81eaa60aaf1d4f1a4a53fa905a6b74d91293841a32641ca20ea800604b752",
        "l10n\/kn.js": "d529f02a6a4668103521a3d89f5f93f088386bfcad4d1242f1a7738bb89185bdcb6cb1e7e43a363d9e9c6c71a6ac62a611f4b58e2ccaecca65373148b8dbaae0",
        "l10n\/kn.json": "f660ae7fa24c6507e4abd1ac71bd619958a3e7e469617197af90d83c540841b9ff7ccee0c38b356a7b987303d00efcea25f96e45ca877f0f86b59f96e1612be7",
        "l10n\/ko.js": "cb9b9d9136556bb37f1cdfb4a91999b5a8af4719d5a2abc74a40b708a762f550bd06a834b004fe2e73567c685e61a35eda2ab4f0139a84eb98078a6c422d98e8",
        "l10n\/ko.json": "53249ef773548c150cbb1550ee017a504089cfc90a265eb04a84f14b00a7c3560ed1b14a7f0c6bcb80cf33dda869d1f4c9afe66c0b74ff94fca416b81ebb5789",
        "l10n\/ku_IQ.js": "e823268406b50638148612aea34ae6997e9191be6df6d32d627f8cd265479f93d56afbc78130a6d8194c7bffd6d56b76c512371539f7443e6ba67ed2e87bb66a",
        "l10n\/ku_IQ.json": "79f4ace7fc8a3b4808df64ce0152cc38f2ecee791f714cdbbcd53c4e6012c7ca3e15c90e81d0f0959ebe9726a1929bb64a9f9b68f86c388a5d2e32e9956a9afd",
        "l10n\/lb.js": "826df1a01b9e60beda9408fc21175a209a59827503de6230835193cc0d949b1825ea4fa1afb3c0dac07b10bf1aff39de0d25998755891fe8513e02b3e2d0c738",
        "l10n\/lb.json": "c72f32b51dfd3063c72d241f5ac3f03ed01eaa01ed1d34a626b3af7947d8e74522f145bf05b10d04aa8915a0d6fc335799c49134005f5bf67707c83ead14107d",
        "l10n\/lt_LT.js": "690151d1a7795ae101a37ef01d758cd5c8cdc948cdea052f16304093a71a88d3a7beca8ad83daf18eeb306972723a25c321d727eb189d4f7ac28e5cb28e3f75d",
        "l10n\/lt_LT.json": "1303a1de2387b93a21287aa93bf341357f02bd568ffa00f6f8244b5f463e055fd43fb1444cb3648fbb610c56223b62670852728b684fefc1a79f405552eadb1d",
        "l10n\/lv.js": "ec72d86ec815409892730ac0f08b82905984767cef0167f0d80571c4d5cf77f91d7a532919d874eb20dc2fd03986e0fadd2f6645e3d198f298b03c0de70b0ffb",
        "l10n\/lv.json": "a240d796464a5e3f88a16e0c3da8569d8ca131541fb22cbbd9113d77934934c1e32b4914e5f9670735540112861584b5de39b9164991e42b4350338d1d2ce0e1",
        "l10n\/mk.js": "d6ef3297fc370fda26d0a5926c8daebfb4bfc9da53ad850c3a20dedd2d7a4f1ef12507b9e46b454902ec8997fd22142778e04194987710942ca28cd4b118b112",
        "l10n\/mk.json": "649d054f03c5659d52cf4058919ed6e873dc48425c310d71fb86959304dd14681b0637e85e8399df8dbf2a011fa1fa9b12f66e3c20002532fb0e78ae5a4561d1",
        "l10n\/ms_MY.js": "3449198d62b8e517f2bfd3d6bf905bbff0001c434575338b15e5cacc5c4beac45c1f2d75244509fe60c8211df56c0dfc18740d2586df1c97f081a66fd8072dc0",
        "l10n\/ms_MY.json": "695310262697417634be9a4e25e3308edd8340f96d7527e202be100f7d4913e1ff322bbe17aa175ba8d48c86d0112b15e314d810d95e52e3ac2e27f629edbe59",
        "l10n\/nb.js": "7fdfd6d5eb81552a9944f6643e71488b0d8180078abc80fbeac9fc4ea4dc2e430e5d65a4884542123e94308d138b2775ea7404d73304cbd34536f5b210c17aaa",
        "l10n\/nb.json": "104f1be628f0e1f1c5109c00b737bb2eecfc20ca2e14e3583981624a447a7352407eeeeb465104610be50610223497b473dab3e6a64c9c08d0e6f89a287547ff",
        "l10n\/nb_NO.js": "b9efe2cf242546c4c7ba0bb68bd72d3066cbb3186582133afbb95142e220bb6037e154e3cd54e57cd4f26fa36fa5ffdc61ef02b9ff40f637ea455683cd0297cf",
        "l10n\/nb_NO.json": "021416e7787325fd02b8c0ba4c4b051c83d06af834fd37a15ade12a03860a495f42268515aa6c5fad98d309ae8fb457f04feea1b788551b0f692f5a9071d852a",
        "l10n\/nds.js": "d8f8d68efe94c2cda8c9c044741eee757f962f0e69fad628857a5b683513f4c2759bf0d0e109d94a900ec3a6f8c8fc5a23a4ca1aaca3d36fe26bfb6fc25fdc19",
        "l10n\/nds.json": "12707fb693269b13c279a41d4cc32691a56b68a18ed730f219abd3f53a5cb8b2070492eb635567394ccaebc4e0f16f08fb774f1d4632bc298fb6f0eb35d2fd5f",
        "l10n\/nl.js": "979bb6d7feae9a6eac6a0121db3a112f8b3152ed19dc1d61271946f595a2f0be44e14836e961f84a9b2456152e08c613356849063fa7ce450fa64ebc3bd2835b",
        "l10n\/nl.json": "549024af37acf343d91687b11c5756f173f8904b0d77b8129d9241daec9b2f666a1d32aad91d473b0f45132489f9773ac8d15b7390fb9e53dfd49d434f24325a",
        "l10n\/nn_NO.js": "40fda56208cca9df0c15f7a86090eb1dea29a19b830843ce4ed5b28d7f08ee4ac1517400b8f6da876d6085184e67ab7ac17a86fb3e807b0fbf8b896c265c9bee",
        "l10n\/nn_NO.json": "770b6b28d57afd56a9e36c9a219d57ec3a14e861e3e0738e9e2205455cc45a5122542e14e2b0f0a1ed88a32cb4c12aaca32a641e4d7cea624bb6c44dd6e2edb2",
        "l10n\/oc.js": "2c68c4e5dcf320a091e79095f923fd1981c230d63f785415b03e6575e8603b5887e53881268e0da69c53f9ed3af0f2e08434cb71190547ab80ab5cc3046d052d",
        "l10n\/oc.json": "f8931b52fb0dedfefb7c79cf5867411fb889bfa3939691f264a62c913ee3e5ec37c6edbc3cff4191ebae50918f7e383f9bee57938828b4e21ce3434c7cb57e74",
        "l10n\/pl.js": "7e620227654d33af8c7a10faee4be96b313415a5c06b48dfc0250aa249f835dcfc7d630663457c406eb46566a6673274b8f2fde12cd3db23128f6d2ee05a332b",
        "l10n\/pl.json": "a209e3ea14db609d2190e101d7427fe7f4f8dc009102a7cabe043f87722df5133b39b9a7392ba1885b8af21d80ae51de68f3d7fd126ea4d7849e7ffa053dc500",
        "l10n\/pt_BR.js": "c78c69e06721d15aa9f7068fee79967743190a600f40a81bb8e13f8d128e5ed01f8b1eb865bd0e41256ee1589ddca5bfe55e28f8eccf577ccf8beba286b84dce",
        "l10n\/pt_BR.json": "e1c02c2bdf6d1faa02a4b011268fda4455e040794e4ee969325e4f11e30b5ac0b9d5eaa98b0a098af63d6a04a19042520a4f423214b67cf2d209fd222da309e9",
        "l10n\/pt_PT.js": "90a177d9d7aefc3165a5e3fa6f954e38d61a2acb3d0f1fddb579211cb00fc51521b95a6393deaba1c3a20ee8f5d66b9055bf98268b71b4c658d4c05bf064c05b",
        "l10n\/pt_PT.json": "059cd59179e503892b1aac08ef9e6396cfdc261b1085e701bc23731fc3759186e135defab0db61ebed0d1d367e10e81cdbd9404112ba02cc3c16bed821bb22bd",
        "l10n\/ro.js": "042bd9b0d0b99e84cd0ad1a57cbbeed335139b9e9cf70d8f730faf7341cc9c3dfcad1c2c86a8ca4935ad3b76c0f134d8b220cbb35b6c47bb886d86d1003f475c",
        "l10n\/ro.json": "a4789638eb91010e25769482e48f9a76bfda75669049faf264ed4f64112158d0b17459b144dfec98185931fd127d67624a5c4b3c3f5653e768592c5ff5b0564f",
        "l10n\/ru.js": "fa8edbdcfaa4a6bd6cc2e803833238aec7eccc9c8308cd4ddbe13daccee209e5255e83d82e86807e0e3cf35a4c6cf0bf82f3399141f229b867972b83d4074489",
        "l10n\/ru.json": "4fae02aa55a2598303b26295219f96ae1fddc505cde21d037093330ffc0870a39fefc38441de8f0d6867a8dcd0f53899abc802108f219f66c2f95be68ebb6421",
        "l10n\/si_LK.js": "32867d18f8505b827f5d9dd1372f032f47bbf61b2ec7a35265a392ec909755c0c363d699fdabee8df926f42e805b1746983cb6e365ed22b7a1ccbf23a32a042a",
        "l10n\/si_LK.json": "2eedaf6fdfb8cce9a76ae29eba9e2365ce1bdf6576599c3b1f9effafa2a1bfb52d43e58302567b67f04a7a28c604c2ff5bb88394ba79a4cecc3b5344f00eec70",
        "l10n\/sk.js": "5957ab6b16a3c187ecff3342e9309b60b3e82ca7834c84fc2d0f621337107cbc4676613a2e730d635cdc0cb4b7d9a61c8905002c4b41ea0e7048dead4148950c",
        "l10n\/sk.json": "8f4175344430324bca735217d07a79fd2f5d2695c425e85d286b6acdd090e174c3328e938168287d7c7c5af5d6bfc2ae1ea5db46ebd57fb0cd07340900324200",
        "l10n\/sk_SK.js": "5aba623a12b0b87c3456a95a3d2cbb75fcaa9b96050d88885d96afbf782bbd2cdc5787fab3c737bb73289a8466928360fb1973824fa976ae4caef39f63567ae5",
        "l10n\/sk_SK.json": "8385955c81052584b17c36fb899f95eb6b6a4ab5d971a1972ceb00fd61f50c80b2f42221cbadbf509030e68d1e7c658a1e0683e6a7f5926768f95a7ffa7cc41c",
        "l10n\/sl.js": "67e872607794e7ae9404843e72604bd6bbc09ef9a212dc6de12afc41114a01e5a57f9faae63bd8858a96c3dcb068aeab807b81bd571576867361fdaee03613f1",
        "l10n\/sl.json": "286e0cceda80f85bb728b02032f677df7ad6b9d84fb4a6624ca16fff4c4c74e8aa01657f761201a99609d59c1d065e548f684ef74b364c32b03c10fdd84c2add",
        "l10n\/sq.js": "cd4870ef89608b6e8792b29a8f9b2f452e05f075c40fa3201b4eb3fab5a74ae5599bee063de34b0fed6403c7edab1666570d7645cef46061eb2cfdd13b58f6e1",
        "l10n\/sq.json": "3ba98b0819264fbbc0c6711d83560ae79a69fa0c25b8dc4e3195ebe0f9361cabfd69b0ac9fd6b7f1f0a07dc94497621d716806f44096cf20deea74766bf9f62d",
        "l10n\/sr.js": "910d3ad385f3e3020e6233674dddb9c92f3b2ad30733f42e990099de3d44d40fc8fb7bef0217003a5b7ec96ff54b6569346ed0db72ab42b637565d7c6c004bce",
        "l10n\/sr.json": "afe570005b34cb3f229669b0aed5c32e83c18b16841b211d3c4621437137b97d8d0d7d25ef59b8000dc49b5d796c0589626234ae481e3175d5de0a6df6d043dd",
        "l10n\/sr@latin.js": "8c5e746ee75008bfb5130e9252a10787b07d75afc57e9ca1d9f465487c969f42690beb049d7717546f7b7c3cb1bd0512cec7fabed580b8b33be8f8bb3cb12f20",
        "l10n\/sr@latin.json": "442996445ea8ccb9529339aa32d46117802225e8d81fac53ba2588bb12eca0e78bdf2d0b606a0f79b131c058d218d68d3866b74c53296dba2ac010961948cd9f",
        "l10n\/sv.js": "15726fa2aeac3221c2eb2ee91da4fd5b279bd782ef023c6fa5e6be375dda2b1a5d5a0e46ef7769fe6cb9435c1717c528fb13219f3257925285b020a1ca68da49",
        "l10n\/sv.json": "fc0c0e5cf603240d18ed3c95e90acec34c9248b3200d23c5eb4ecf70e1d9db1ac1ccc09b5c0e04eeee65a225d0ff4507073f339863e2c273c83306fad02bedc8",
        "l10n\/ta_LK.js": "2318175e431b2718c2f05cdb61405145435a7c423d3b18ccfddb69b8de937a75ac78542207f7b8fdb5da951d466f0e58b3a8913bb3d3a55a4a288082e6a39c0e",
        "l10n\/ta_LK.json": "410212fef87de6669ac628400441b746f2c9d3b1d992915005df5f1656f470cde748801ae9e2d1cdbec5c39eb30f51f7b4f73b19791aaf28eb25d0cc5083c5e4",
        "l10n\/te.js": "5693581030e6e3c414a7ebbb937172af7652c98aba8e2d5dc9f83468159d1f636a0c8b0b09e2c06a8552aa4d4e7dd316d86391724a6e37e75693cf4cfad56002",
        "l10n\/te.json": "3f6961657aaa7c92b5d7e924bc32a6e628e34816b565fe022089b512a0423a26662c6b0741f0c7a97e7f651235ef2c05cca81c2c861c9e6f9f33faaa6ef3c38e",
        "l10n\/th_TH.js": "be61b1ab677a9fcbd90668fa24c493cf316c976173b13e347b551ea50d47a2a1a1ab2b6d05c0b21bd82a9ca3d774067af3c9334f83fcf7c196a48a6f82e9486c",
        "l10n\/th_TH.json": "d9512d6f41a68188feebbff53a3e28ea3b2e55d64061765715772e3a3e27f024a0726dfcffb2df4ae1bde84d1fa09c706d825593114e034ad5f6d8ff80fd2190",
        "l10n\/tr.js": "fd64cb5a1b409587b1f5cfe74f538a3b444232cbd288bcd63a5cb42047ddb49e7df9305afaee4a2df60c18e39953b62bff4aed676e06e93dcfadbb1b42b01d8f",
        "l10n\/tr.json": "1bffd79fc9d705b225e74a6d960fdbcba5b5a780558800520e4a7759ac6f5a00e1db5fa9eb1de3d2411c004fef213b8981e4e9a094bf1097c79c02412c7a93b5",
        "l10n\/ug.js": "7a27f945e2e03a07ffe9e90c47ac2dba97a0c6c9d5993f8a54487347aab7bde62be696076422ca2b2416f87584977455f10b674acae286c8d489f53fcc8e2f82",
        "l10n\/ug.json": "f2b063371993f3d5bd70099753d27a70c2d566575a57dedeb9bee42560d3995ab6e988f870baf16b3ab4ae03f91b075d736f221ba2ed5199dd7eebb9384b0280",
        "l10n\/uk.js": "592d04c34bb89a8776fba53e45df6ee98213517f0d0a891399f02ff6d0a0365845ad80775ace58e9a7f187077afe0162eb7dde8e1da13837ad1bb0c447525c8a",
        "l10n\/uk.json": "37d86e92b4b66c449f97c5959f243872124788e88ec11fc9a4b827ea8d124ab2d65226c95fc28963d606e957ceec448cad53deadd664b7ad30d87a6b01826dfe",
        "l10n\/ur_PK.js": "743e97bf01411fef55caa9d798c47f2caabdc405f8a771ad8d37d6ed4fed52ba43de8450d54aa2a50f4a55675c10c00becd7b0779fd1488ac6c00bbdb3813d4d",
        "l10n\/ur_PK.json": "b389a79b7a00efd2fa4b098017dc178a87674ea7695d94a7b49464e2f91406986c1f256dea6d234e008e7c22a59d25e6d1228a994b4434985b1d41a067a39a4e",
        "l10n\/vi.js": "a5e982d92fabfd3e6c6fe8918f53b02d6d1fff52f1b34bc317cc480ae5837c2105b90c757ba7b00c2f4c7d05c3f9704c8db10fe82eba75f48859554334eb5f8c",
        "l10n\/vi.json": "81d3a83e84ed66d6b1c02233ddaefa292a36d8bd268ea70bd5ec5b10705d103176d84e3a26ad173881d8981bc561c93da63629a66cb07bf9758ef7531e250844",
        "l10n\/zh_CN.js": "9af272bd7f32176b8d82ee336239c7833a7f800f44f36594709ad7f4403d7f68ba74f4cba8919a33d7cc522d8f0d936d57504c737c2aca77baa323350c1af603",
        "l10n\/zh_CN.json": "f0937a7b232c2ce6ef43d6c8ed9e7204073539bcccd72bb85556558e7912b870e2127c5516afc90aece6cfda154fe387faea901fcadcee74bdc34abab1338033",
        "l10n\/zh_HK.js": "d0a0114e66f907dd96af300d1d9f2038ae1d4b5d0a00239cdb222d33139e455bda7e2b4e28850b31a37594aa514ab9b992c54c785665495ea2eba41c62771012",
        "l10n\/zh_HK.json": "1f67fde52c03dab1be3af4dcf049525a0de399cc8d50a0802e062c705667c16a7f17130311d645f875afb794f783af0af8f3c02f2278df0c0c8bad2a55a3c42b",
        "l10n\/zh_TW.js": "40afb2c63a4f06f118b674f33064ae37ad3ea82c79742758dc100c2a868c4df335b0cab6103fb598b4e670f9791adeda2a95d909c55c393457ecb196a47b3e2c",
        "l10n\/zh_TW.json": "d7b0d3ab630a7e35becf00eaeddb7bd73b59b1abbb68c88bcd83eca156e72b9f4619bc8ea36b7fcce19c45a594956ef9f2eeae4521a6a8437fd3178cb9071895",
        "lib\/Activity\/Listener.php": "6431ed3aa8fb21a88c79f3ce495c08456007516385639b645fe1829023ad7d80b57655226495addb6bad87b59e0fe9d4f5746ab0c6da44de448967df2a1166c2",
        "lib\/Activity\/Provider.php": "801ea6f3aac3e1130ed03a68b77526c3de4bdde156ad45abaec706e1d058aa7501ae52aa2e0e769b1d797cca9018688da8af9d1fd14dc07a3a2f4f58ec6709cf",
        "lib\/Activity\/Setting.php": "aff53e456871ea337fafb08f41a5fa54b2c8419a94695bd906fefc0f8665c0824f1022be3a395c21b89085f170bf20b3a1a71052e8b339038289df76eef38575",
        "lib\/AppInfo\/Application.php": "47e44a2ae3833909f19bf853e7d3cff825059db8d3a96292f5267a497db21132926f1533df7fdff962f7e0b53d199ae55e7f5cc7e91c3466eafc43f925f023ba",
        "lib\/Controller\/LastUsedController.php": "5e7b2d596eb48dbe4ab930351da4cfabbba6075bda6fdf89abc00edfde357c821b2bf61e319dc70365cde0c69e2990d5252fae81a0736e970253624e0ea1dced",
        "lib\/Settings\/Admin.php": "a1f39620020b111f97a63e3432e1a25d569797e90e5b91a133792e2c6a45902ecde5a58ac86bc1cd3e2c7189fc2d0168b109644a2e0434beb497d15877ab5a5d",
        "list.php": "f0eb0a41c350dfc8796aae82302f65f4059d24dc60443f95e383261b9a02f510c323dc159823435609963933f7ccc6db756aafa4f6e93e715eacd32b6c26330b",
        "templates\/admin.php": "9785115967c1e5af99fc52ddb857eb7ef5089caa7cff11af32bd7fab75a883360a0c3685d6c8298c83b0fd743a6533c00e509fe6ddf0039f53ba165eb0bd3ea3",
        "templates\/list.php": "2fa59ac5a1025ce737e684425c7a28c80caef243c09cce1748c44c03d24a5c41c172a75bfa5d6d7bca3e049fddc51d4a0256e6c5203762d4677793727ce5bc41"
    },
    "signature": "ygzzw9I3VvGaNbJPwFxL4Kk3buREDuCSX8gCcfS\/qKrmIFisz7nGyMIyALKXAOpR9sXdwzbkeyI5GzuVAzjUCI8NWaBSfg8OR\/effvbjjGwaYSqT7S6a2pJlvPlnFyZCoaRDABQ1XqXgFuf40u94hCGi1zBOVs7IN9xlRTAllcJ03k1KkZY3N3G7hyEC2ucGF8CK5DPmvYiyN3SL9+DUaECCPhuCEEQfbeiY3l\/oqBoSsZ3hQGngu58jTtptwkRKq4WcaYZbQfzkQFJF+GT0WP8lCZn6SvaFvspfpsuXD\/ufEfxssTS54PeSUDLKSGj\/v1NCaLx\/L7idiehtyWmZvA==",
    "certificate": "-----BEGIN CERTIFICATE-----\r\nMIIEojCCA4qgAwIBAgICEAAwDQYJKoZIhvcNAQELBQAwezELMAkGA1UEBhMCREUx\r\nGzAZBgNVBAgMEkJhZGVuLVd1ZXJ0dGVtYmVyZzEXMBUGA1UECgwOTmV4dGNsb3Vk\r\nIEdtYkgxNjA0BgNVBAMMLU5leHRjbG91ZCBDb2RlIFNpZ25pbmcgSW50ZXJtZWRp\r\nYXRlIEF1dGhvcml0eTAeFw0xNjA2MTIyMTA1MDZaFw00MTA2MDYyMTA1MDZaMGYx\r\nCzAJBgNVBAYTAkRFMRswGQYDVQQIDBJCYWRlbi1XdWVydHRlbWJlcmcxEjAQBgNV\r\nBAcMCVN0dXR0Z2FydDEXMBUGA1UECgwOTmV4dGNsb3VkIEdtYkgxDTALBgNVBAMM\r\nBGNvcmUwggEiMA0GCSqGSIb3DQEBAQUAA4IBDwAwggEKAoIBAQDUxcrn2DC892IX\r\n8+dJjZVh9YeHF65n2ha886oeAizOuHBdWBfzqt+GoUYTOjqZF93HZMcwy0P+xyCf\r\nQqak5Ke9dybN06RXUuGP45k9UYBp03qzlUzCDalrkj+Jd30LqcSC1sjRTsfuhc+u\r\nvH1IBuBnf7SMUJUcoEffbmmpAPlEcLHxlUGlGnz0q1e8UFzjbEFj3JucMO4ys35F\r\nqZS4dhvCngQhRW3DaMlQLXEUL9k3kFV+BzlkPzVZEtSmk4HJujFCnZj1vMcjQBg\/\r\nBqq1HCmUB6tulnGcxUzt\/Z\/oSIgnuGyENeke077W3EyryINL7EIyD4Xp7sxLizTM\r\nFCFCjjH1AgMBAAGjggFDMIIBPzAJBgNVHRMEAjAAMBEGCWCGSAGG+EIBAQQEAwIG\r\nQDAzBglghkgBhvhCAQ0EJhYkT3BlblNTTCBHZW5lcmF0ZWQgU2VydmVyIENlcnRp\r\nZmljYXRlMB0GA1UdDgQWBBQwc1H9AL8pRlW2e5SLCfPPqtqc0DCBpQYDVR0jBIGd\r\nMIGagBRt6m6qqTcsPIktFz79Ru7DnnjtdKF+pHwwejELMAkGA1UEBhMCREUxGzAZ\r\nBgNVBAgMEkJhZGVuLVd1ZXJ0dGVtYmVyZzESMBAGA1UEBwwJU3R1dHRnYXJ0MRcw\r\nFQYDVQQKDA5OZXh0Y2xvdWQgR21iSDEhMB8GA1UEAwwYTmV4dGNsb3VkIFJvb3Qg\r\nQXV0aG9yaXR5ggIQADAOBgNVHQ8BAf8EBAMCBaAwEwYDVR0lBAwwCgYIKwYBBQUH\r\nAwEwDQYJKoZIhvcNAQELBQADggEBADZ6+HV\/+0NEH3nahTBFxO6nKyR\/VWigACH0\r\nnaV0ecTcoQwDjKDNNFr+4S1WlHdwITlnNabC7v9rZ\/6QvbkrOTuO9fOR6azp1EwW\r\n2pixWqj0Sb9\/dSIVRpSq+jpBE6JAiX44dSR7zoBxRB8DgVO2Afy0s80xEpr5JAzb\r\nNYuPS7M5UHdAv2dr16fDcDIvn+vk92KpNh1NTeZFjBbRVQ9DXrgkRGW34TK8uSLI\r\nYG6jnfJ6eJgTaO431ywWPXNg1mUMaT\/+QBOgB299QVCKQU+lcZWptQt+RdsJUm46\r\nNY\/nARy4Oi4uOe88SuWITj9KhrFmEvrUlgM8FvoXA1ldrR7KiEg=\r\n-----END CERTIFICATE-----"
}